%!PS-Adobe-3.0 EPSF-3.0
%%BoundingBox: (atend)
%%LanguageLevel: 2
%%Creator: Grace-5.1.25
%%CreationDate: Wed Feb 13 11:19:22 2019
%%DocumentData: Clean8Bit
%%Orientation: Portrait
%%Title: /home/brian/Cloud-Files/Bitbucket/massive-dofs/Figures/xmgrace-files/BHPSR-Systematics.agr
%%For: brian
%%DocumentNeededResources: (atend)
%%EndComments
%%BeginProlog
/m {moveto} def
/l {lineto} def
/s {stroke} def
/n {newpath} def
/c {closepath} def
/RL {rlineto} def
/SLW {setlinewidth} def
/GS {gsave} def
/GR {grestore} def
/SC {setcolor} def
/SGRY {setgray} def
/SRGB {setrgbcolor} def
/SD {setdash} def
/SLC {setlinecap} def
/SLJ {setlinejoin} def
/SCS {setcolorspace} def
/FFSF {findfont setfont} def
/CC {concat} def
/PXL {n m 0 0 RL s} def
/Color0 {1.0000 1.0000 1.0000} def
/Color1 {0.0000 0.0000 0.0000} def
/Color2 {1.0000 0.0000 0.0000} def
/Color3 {0.0000 1.0000 0.0000} def
/Color4 {0.0000 0.0000 1.0000} def
/Color5 {1.0000 1.0000 0.0000} def
/Color6 {0.7373 0.5608 0.5608} def
/Color7 {0.8627 0.8627 0.8627} def
/Color8 {0.5804 0.0000 0.8275} def
/Color9 {0.0000 1.0000 1.0000} def
/Color10 {1.0000 0.0000 1.0000} def
/Color11 {1.0000 0.6471 0.0000} def
/Color12 {0.4471 0.1294 0.7373} def
/Color13 {0.4039 0.0275 0.2824} def
/Color14 {0.2510 0.8784 0.8157} def
/Color15 {0.0000 0.5451 0.0000} def
/Color16 {0.7529 0.7529 0.7529} def
/Color17 {0.5059 0.5059 0.5059} def
/Color18 {0.2588 0.2588 0.2588} def
/PTRN {
 /pat_bits exch def 
 <<
  /PaintType 2
  /PatternType 1 /TilingType 1
  /BBox[0 0 16 16]
  /XStep 16 /YStep 16
  /PaintProc {
   pop
   16 16 true [-1 0 0 -1 16 16] pat_bits imagemask
  }
 >>
 [0.0016 0 0 0.0016 0 0]
 makepattern
} def
/Pattern0 {<0000000000000000000000000000000000000000000000000000000000000000> PTRN} bind def
/Pattern1 {<ffffffffffffffffffffffffffffffffffffffffffffffffffffffffffffffff> PTRN} bind def
/Pattern2 {<eeeeffffbbbbffffeeeeffffbbbbffffeeeeffffbbbbffffeeeeffffbbbbffff> PTRN} bind def
/Pattern3 {<eeeebbbbeeeebbbbeeeebbbbeeeebbbbeeeebbbbeeeebbbbeeeebbbbeeeebbbb> PTRN} bind def
/Pattern4 {<5555aaaa5555aaaa5555aaaa5555aaaa5555aaaa5555aaaa5555aaaa5555aaaa> PTRN} bind def
/Pattern5 {<1111444411114444111144441111444411114444111144441111444411114444> PTRN} bind def
/Pattern6 {<1111000044440000111100004444000011110000444400001111000044440000> PTRN} bind def
/Pattern7 {<1010000000000000010100000000000010100000000000000101000000000000> PTRN} bind def
/Pattern8 {<0000000000000000000000000000000000000000000000000000000000000000> PTRN} bind def
/Pattern9 {<1e1e0f0f8787c3c3e1e1f0f078783c3c1e1e0f0f8787c3c3e1e1f0f078783c3c> PTRN} bind def
/Pattern10 {<7878f0f0e1e1c3c387870f0f1e1e3c3c7878f0f0e1e1c3c387870f0f1e1e3c3c> PTRN} bind def
/Pattern11 {<3333333333333333333333333333333333333333333333333333333333333333> PTRN} bind def
/Pattern12 {<ffffffff00000000ffffffff00000000ffffffff00000000ffffffff00000000> PTRN} bind def
/Pattern13 {<8181424224241818181824244242818181814242242418181818242442428181> PTRN} bind def
/Pattern14 {<8080404020201010080804040202010180804040202010100808040402020101> PTRN} bind def
/Pattern15 {<0101020204040808101020204040808001010202040408081010202040408080> PTRN} bind def
/Pattern16 {<2222222222222222222222222222222222222222222222222222222222222222> PTRN} bind def
/Pattern17 {<0000ffff000000000000ffff000000000000ffff000000000000ffff00000000> PTRN} bind def
/Pattern18 {<2222ffff222222222222ffff222222222222ffff222222222222ffff22222222> PTRN} bind def
/Pattern19 {<ffffffff33333333ffffffff33333333ffffffff33333333ffffffff33333333> PTRN} bind def
/Pattern20 {<0f0f0f0f0f0f0f0ff0f0f0f0f0f0f0f00f0f0f0f0f0f0f0ff0f0f0f0f0f0f0f0> PTRN} bind def
/Pattern21 {<ff00ff00ff00ff00ff00ff00ff00ff0000ff00ff00ff00ff00ff00ff00ff00ff> PTRN} bind def
/Pattern22 {<8001800180018001800180018001ffffffff8001800180018001800180018001> PTRN} bind def
/Pattern23 {<c003c003c003c003c003c003ffffffffffffffffc003c003c003c003c003c003> PTRN} bind def
/Pattern24 {<040404040404ffff404040404040ffff040404040404ffff404040404040ffff> PTRN} bind def
/Pattern25 {<180018001800180018001800ffffffff001800180018001800180018ffffffff> PTRN} bind def
/Pattern26 {<1111b8b87c7c3a3a1111a3a3c7c78b8b1111b8b87c7c3a3a1111a3a3c7c78b8b> PTRN} bind def
/Pattern27 {<101010102828c7c70101010182827c7c101010102828c7c70101010182827c7c> PTRN} bind def
/Pattern28 {<1c1c121211112121c1c12121111112121c1c121211112121c1c1212111111212> PTRN} bind def
/Pattern29 {<3e3e414180808080e3e31414080808083e3e414180808080e3e3141408080808> PTRN} bind def
/Pattern30 {<4848888884848383848488884848383848488888848483838484888848483838> PTRN} bind def
/Pattern31 {<03030404080808080c0c12122121c0c003030404080808080c0c12122121c0c0> PTRN} bind def
/ellipsedict 8 dict def
ellipsedict /mtrx matrix put
/EARC {
 ellipsedict begin
  /endangle exch def
  /startangle exch def
  /yrad exch def
  /xrad exch def
  /y exch def
  /x exch def
  /savematrix mtrx currentmatrix def
  x y translate
  xrad yrad scale
  0 0 1 startangle endangle arc
  savematrix setmatrix
 end
} def
/TL {
  /kcomp exch def
  /linewidth exch def
  /offset exch def
  GS
  0 offset rmoveto
  linewidth SLW
  dup stringwidth exch kcomp add exch RL s
  GR
} def
/KINIT
{
 /kvector exch def
 /kid 0 def
} def
/KPROC
{
 pop pop
 kvector kid get
 0 rmoveto
 /kid 1 kid add def
} def
/DefEncoding [
 /.notdef
 /.notdef
 /.notdef
 /.notdef
 /.notdef
 /.notdef
 /.notdef
 /.notdef
 /.notdef
 /.notdef
 /.notdef
 /.notdef
 /.notdef
 /.notdef
 /.notdef
 /.notdef
 /.notdef
 /.notdef
 /.notdef
 /.notdef
 /.notdef
 /.notdef
 /.notdef
 /.notdef
 /.notdef
 /.notdef
 /.notdef
 /.notdef
 /.notdef
 /.notdef
 /.notdef
 /.notdef
 /space
 /exclam
 /quotedbl
 /numbersign
 /dollar
 /percent
 /ampersand
 /quoteright
 /parenleft
 /parenright
 /asterisk
 /plus
 /comma
 /hyphen
 /period
 /slash
 /zero
 /one
 /two
 /three
 /four
 /five
 /six
 /seven
 /eight
 /nine
 /colon
 /semicolon
 /less
 /equal
 /greater
 /question
 /at
 /A
 /B
 /C
 /D
 /E
 /F
 /G
 /H
 /I
 /J
 /K
 /L
 /M
 /N
 /O
 /P
 /Q
 /R
 /S
 /T
 /U
 /V
 /W
 /X
 /Y
 /Z
 /bracketleft
 /backslash
 /bracketright
 /asciicircum
 /underscore
 /grave
 /a
 /b
 /c
 /d
 /e
 /f
 /g
 /h
 /i
 /j
 /k
 /l
 /m
 /n
 /o
 /p
 /q
 /r
 /s
 /t
 /u
 /v
 /w
 /x
 /y
 /z
 /braceleft
 /bar
 /braceright
 /asciitilde
 /.notdef
 /.notdef
 /.notdef
 /.notdef
 /.notdef
 /.notdef
 /.notdef
 /.notdef
 /.notdef
 /.notdef
 /.notdef
 /.notdef
 /.notdef
 /.notdef
 /.notdef
 /.notdef
 /.notdef
 /.notdef
 /.notdef
 /.notdef
 /.notdef
 /.notdef
 /.notdef
 /.notdef
 /.notdef
 /.notdef
 /.notdef
 /.notdef
 /.notdef
 /.notdef
 /.notdef
 /.notdef
 /.notdef
 /space
 /exclamdown
 /cent
 /sterling
 /currency
 /yen
 /brokenbar
 /section
 /dieresis
 /copyright
 /ordfeminine
 /guillemotleft
 /logicalnot
 /hyphen
 /registered
 /macron
 /degree
 /plusminus
 /twosuperior
 /threesuperior
 /acute
 /mu
 /paragraph
 /periodcentered
 /cedilla
 /onesuperior
 /ordmasculine
 /guillemotright
 /onequarter
 /onehalf
 /threequarters
 /questiondown
 /Agrave
 /Aacute
 /Acircumflex
 /Atilde
 /Adieresis
 /Aring
 /AE
 /Ccedilla
 /Egrave
 /Eacute
 /Ecircumflex
 /Edieresis
 /Igrave
 /Iacute
 /Icircumflex
 /Idieresis
 /Eth
 /Ntilde
 /Ograve
 /Oacute
 /Ocircumflex
 /Otilde
 /Odieresis
 /multiply
 /Oslash
 /Ugrave
 /Uacute
 /Ucircumflex
 /Udieresis
 /Yacute
 /Thorn
 /germandbls
 /agrave
 /aacute
 /acircumflex
 /atilde
 /adieresis
 /aring
 /ae
 /ccedilla
 /egrave
 /eacute
 /ecircumflex
 /edieresis
 /igrave
 /iacute
 /icircumflex
 /idieresis
 /eth
 /ntilde
 /ograve
 /oacute
 /ocircumflex
 /otilde
 /odieresis
 /divide
 /oslash
 /ugrave
 /uacute
 /ucircumflex
 /udieresis
 /yacute
 /thorn
 /ydieresis
] def
%%EndProlog
%%BeginSetup
%%EndSetup
612.00 612.00 scale
n
0.0000 0.0000 m
0.0000 1.0000 l
1.2941 1.0000 l
1.2941 0.0000 l
c
[/DeviceRGB] SCS
Color0 SC
fill
[/DeviceRGB] SCS
Color4 SC
[0.0420 0.0180 ] 0 SD
0.0060 SLW
0 SLC
0 SLJ
n
0.3167 0.7931 m
0.3172 0.7931 l
0.3194 0.7931 l
0.3200 0.7931 l
0.3206 0.7931 l
0.3228 0.7931 l
0.3234 0.7931 l
0.3240 0.7931 l
0.3261 0.7930 l
0.3267 0.7930 l
0.3274 0.7930 l
0.3294 0.7930 l
0.3301 0.7930 l
0.3308 0.7930 l
0.3328 0.7930 l
0.3334 0.7930 l
0.3341 0.7930 l
0.3361 0.7930 l
0.3368 0.7929 l
0.3375 0.7929 l
0.3394 0.7929 l
0.3402 0.7929 l
0.3409 0.7929 l
0.3427 0.7929 l
0.3435 0.7929 l
0.3443 0.7929 l
0.3460 0.7928 l
0.3469 0.7928 l
0.3477 0.7928 l
0.3493 0.7928 l
0.3502 0.7928 l
0.3511 0.7928 l
0.3527 0.7928 l
0.3536 0.7928 l
0.3545 0.7927 l
0.3560 0.7927 l
0.3569 0.7927 l
0.3580 0.7927 l
0.3592 0.7926 l
0.3603 0.7926 l
0.3614 0.7926 l
0.3625 0.7926 l
0.3636 0.7926 l
0.3648 0.7925 l
0.3658 0.7925 l
0.3670 0.7925 l
0.3682 0.7925 l
0.3691 0.7924 l
0.3704 0.7924 l
0.3717 0.7924 l
0.3724 0.7924 l
0.3737 0.7923 l
0.3752 0.7923 l
0.3756 0.7923 l
0.3771 0.7922 l
0.3786 0.7922 l
0.3789 0.7922 l
0.3804 0.7921 l
0.3821 0.7921 l
0.3821 0.7921 l
0.3823 0.7921 l
0.3838 0.7920 l
0.3853 0.7919 l
0.3856 0.7919 l
0.3871 0.7919 l
0.3886 0.7918 l
0.3891 0.7918 l
0.3905 0.7917 l
0.3918 0.7917 l
0.3926 0.7916 l
0.3938 0.7916 l
0.3950 0.7915 l
0.3962 0.7915 l
0.3972 0.7914 l
0.3981 0.7914 l
0.3997 0.7913 l
0.4006 0.7912 l
0.4013 0.7912 l
0.4033 0.7911 l
0.4039 0.7910 l
0.4045 0.7910 l
0.4069 0.7908 l
0.4073 0.7908 l
0.4076 0.7908 l
0.4106 0.7906 l
0.4106 0.7906 l
0.4113 0.7905 l
0.4138 0.7903 l
0.4140 0.7903 l
0.4142 0.7903 l
0.4168 0.7900 l
0.4173 0.7900 l
0.4180 0.7899 l
0.4199 0.7897 l
0.4207 0.7897 l
0.4217 0.7895 l
0.4229 0.7894 l
0.4240 0.7893 l
0.4255 0.7891 l
0.4259 0.7891 l
0.4274 0.7889 l
0.4288 0.7887 l
0.4294 0.7886 l
0.4308 0.7884 l
0.4317 0.7883 l
0.4334 0.7880 l
0.4341 0.7879 l
0.4346 0.7878 l
0.4374 0.7874 l
0.4375 0.7874 l
0.4375 0.7874 l
0.4375 0.7874 l
0.4403 0.7868 l
0.4408 0.7868 l
0.4417 0.7866 l
0.4430 0.7863 l
0.4442 0.7861 l
0.4453 0.7858 l
0.4458 0.7857 l
0.4460 0.7856 l
0.4475 0.7853 l
0.4484 0.7851 l
0.4506 0.7845 l
0.4509 0.7844 l
0.4516 0.7842 l
0.4537 0.7837 l
0.4543 0.7835 l
0.4554 0.7831 l
0.4562 0.7829 l
0.4576 0.7825 l
0.4587 0.7821 l
0.4607 0.7813 l
0.4610 0.7812 l
0.4611 0.7812 l
0.4613 0.7811 l
0.4634 0.7803 l
0.4643 0.7799 l
0.4652 0.7795 l
0.4657 0.7793 l
0.4668 0.7788 l
0.4677 0.7784 l
0.4680 0.7782 l
0.4685 0.7780 l
0.4702 0.7771 l
0.4710 0.7767 l
0.4723 0.7760 l
0.4742 0.7748 l
0.4743 0.7748 l
0.4744 0.7747 l
0.4747 0.7745 l
0.4763 0.7735 l
0.4777 0.7725 l
0.4788 0.7717 l
0.4801 0.7708 l
0.4811 0.7700 l
0.4819 0.7693 l
0.4827 0.7686 l
0.4836 0.7678 l
0.4845 0.7670 l
0.4853 0.7662 l
0.4860 0.7654 l
0.4869 0.7646 l
0.4878 0.7635 l
0.4884 0.7628 l
0.4888 0.7623 l
0.4899 0.7611 l
0.4912 0.7594 l
0.4913 0.7593 l
0.4913 0.7592 l
0.4917 0.7587 l
0.4926 0.7574 l
0.4935 0.7560 l
0.4939 0.7555 l
0.4945 0.7545 l
0.4951 0.7535 l
0.4954 0.7529 l
0.4963 0.7514 l
0.4965 0.7510 l
0.4972 0.7498 l
0.4974 0.7494 l
0.4979 0.7485 l
0.4985 0.7472 l
0.4988 0.7466 l
0.4994 0.7452 l
0.4995 0.7450 l
0.5001 0.7435 l
0.5005 0.7428 l
0.5012 0.7410 l
0.5014 0.7405 l
0.5014 0.7404 l
0.5016 0.7401 l
0.5023 0.7382 l
0.5026 0.7372 l
0.5029 0.7364 l
0.5031 0.7359 l
0.5032 0.7354 l
0.5037 0.7341 l
0.5039 0.7335 l
0.5042 0.7326 l
0.5046 0.7311 l
0.5046 0.7310 l
0.5046 0.7310 l
0.5046 0.7309 l
0.5050 0.7298 l
0.5051 0.7294 l
0.5053 0.7288 l
0.5053 0.7285 l
0.5055 0.7279 l
0.5058 0.7267 l
0.5059 0.7263 l
0.5060 0.7260 l
0.5063 0.7250 l
0.5063 0.7247 l
0.5064 0.7246 l
0.5066 0.7235 l
0.5067 0.7232 l
0.5068 0.7226 l
0.5069 0.7222 l
0.5071 0.7216 l
0.5072 0.7209 l
0.5073 0.7206 l
0.5074 0.7200 l
0.5077 0.7187 l
0.5078 0.7185 l
0.5078 0.7183 l
0.5079 0.7177 l
0.5083 0.7157 l
0.5084 0.7153 l
0.5085 0.7148 l
0.5088 0.7130 l
0.5090 0.7122 l
0.5092 0.7110 l
0.5093 0.7103 l
0.5095 0.7091 l
0.5096 0.7086 l
0.5098 0.7076 l
0.5098 0.7075 l
0.5098 0.7073 l
0.5100 0.7063 l
0.5100 0.7059 l
0.5101 0.7055 l
0.5102 0.7049 l
0.5103 0.7044 l
0.5104 0.7036 l
0.5104 0.7035 l
0.5105 0.7032 l
0.5105 0.7028 l
0.5106 0.7021 l
0.5106 0.7018 l
0.5107 0.7012 l
0.5108 0.7008 l
0.5109 0.7000 l
0.5109 0.6997 l
0.5110 0.6994 l
0.5111 0.6983 l
0.5111 0.6981 l
0.5112 0.6980 l
0.5112 0.6973 l
0.5113 0.6969 l
0.5113 0.6966 l
0.5113 0.6965 l
0.5114 0.6965 l
0.5115 0.6952 l
0.5115 0.6950 l
0.5116 0.6947 l
0.5117 0.6938 l
0.5117 0.6934 l
0.5118 0.6930 l
0.5118 0.6923 l
0.5119 0.6918 l
0.5120 0.6912 l
0.5120 0.6909 l
0.5121 0.6903 l
0.5121 0.6897 l
0.5122 0.6895 l
0.5122 0.6895 l
0.5122 0.6887 l
0.5123 0.6881 l
0.5123 0.6877 l
0.5124 0.6871 l
0.5124 0.6866 l
0.5125 0.6860 l
0.5125 0.6856 l
0.5126 0.6852 l
0.5127 0.6843 l
0.5127 0.6840 l
0.5127 0.6838 l
0.5128 0.6826 l
0.5128 0.6824 l
0.5129 0.6823 l
0.5129 0.6817 l
0.5130 0.6810 l
0.5130 0.6809 l
0.5130 0.6809 l
0.5130 0.6809 l
0.5131 0.6794 l
0.5131 0.6793 l
0.5131 0.6792 l
0.5132 0.6780 l
0.5132 0.6777 l
0.5133 0.6775 l
0.5133 0.6765 l
0.5134 0.6762 l
0.5134 0.6758 l
0.5135 0.6751 l
0.5135 0.6746 l
0.5135 0.6741 l
0.5136 0.6736 l
0.5136 0.6730 l
0.5137 0.6724 l
0.5137 0.6721 l
0.5137 0.6715 l
0.5138 0.6707 l
0.5138 0.6707 l
0.5138 0.6702 l
0.5138 0.6699 l
0.5139 0.6692 l
0.5139 0.6691 l
0.5139 0.6691 l
0.5139 0.6683 l
0.5140 0.6677 l
0.5140 0.6676 l
0.5140 0.6674 l
0.5140 0.6668 l
0.5141 0.6662 l
0.5141 0.6660 l
0.5141 0.6657 l
0.5141 0.6652 l
0.5142 0.6648 l
0.5142 0.6641 l
0.5142 0.6636 l
0.5143 0.6633 l
0.5143 0.6629 l
0.5143 0.6625 l
0.5143 0.6624 l
0.5143 0.6621 l
0.5143 0.6618 l
0.5144 0.6613 l
0.5144 0.6608 l
0.5144 0.6605 l
0.5144 0.6603 l
0.5145 0.6597 l
0.5145 0.6591 l
0.5145 0.6589 l
0.5145 0.6588 l
0.5146 0.6575 l
0.5146 0.6574 l
0.5146 0.6573 l
0.5146 0.6566 l
0.5147 0.6561 l
0.5147 0.6558 l
0.5147 0.6558 l
0.5147 0.6558 l
0.5147 0.6551 l
0.5147 0.6550 l
0.5147 0.6550 l
0.5147 0.6543 l
0.5147 0.6543 l
0.5147 0.6542 l
0.5148 0.6535 l
0.5148 0.6528 l
0.5148 0.6527 l
0.5148 0.6525 l
0.5149 0.6519 l
0.5149 0.6513 l
0.5149 0.6511 l
0.5149 0.6509 l
0.5149 0.6503 l
0.5150 0.6498 l
0.5150 0.6496 l
0.5150 0.6493 l
0.5150 0.6488 l
0.5150 0.6483 l
0.5150 0.6480 l
0.5150 0.6476 l
0.5151 0.6472 l
0.5151 0.6468 l
0.5151 0.6464 l
0.5151 0.6460 l
0.5151 0.6456 l
0.5151 0.6453 l
0.5152 0.6449 l
0.5152 0.6444 l
0.5152 0.6441 l
0.5152 0.6438 l
0.5152 0.6433 l
0.5152 0.6427 l
0.5153 0.6423 l
0.5153 0.6417 l
0.5153 0.6411 l
0.5153 0.6408 l
0.5153 0.6402 l
0.5154 0.6395 l
0.5154 0.6394 l
0.5154 0.6393 l
0.5154 0.6386 l
0.5154 0.6379 l
0.5154 0.6377 l
0.5155 0.6370 l
0.5155 0.6363 l
0.5155 0.6362 l
0.5155 0.6359 l
0.5155 0.6355 l
0.5155 0.6347 l
0.5155 0.6347 l
0.5155 0.6346 l
0.5156 0.6340 l
0.5156 0.6339 l
0.5156 0.6338 l
0.5156 0.6332 l
0.5156 0.6331 l
0.5156 0.6330 l
0.5156 0.6323 l
0.5156 0.6317 l
0.5156 0.6314 l
0.5157 0.6308 l
0.5157 0.6301 l
0.5157 0.6298 l
0.5157 0.6292 l
0.5157 0.6286 l
0.5157 0.6284 l
0.5157 0.6282 l
0.5157 0.6279 l
0.5157 0.6276 l
0.5158 0.6274 l
0.5158 0.6271 l
0.5158 0.6268 l
0.5158 0.6266 l
0.5158 0.6261 l
0.5158 0.6256 l
0.5158 0.6250 l
0.5158 0.6245 l
0.5158 0.6240 l
0.5159 0.6234 l
0.5159 0.6229 l
0.5159 0.6225 l
0.5159 0.6221 l
0.5159 0.6218 l
0.5159 0.6217 l
0.5159 0.6214 l
0.5159 0.6210 l
0.5159 0.6210 l
0.5159 0.6206 l
0.5159 0.6202 l
0.5159 0.6198 l
0.5160 0.6195 l
0.5160 0.6186 l
0.5160 0.6182 l
0.5160 0.6179 l
0.5160 0.6170 l
0.5160 0.6167 l
0.5160 0.6164 l
0.5160 0.6159 l
0.5160 0.6156 l
0.5161 0.6154 l
0.5161 0.6151 l
0.5161 0.6149 l
0.5161 0.6146 l
0.5161 0.6143 l
0.5161 0.6138 l
0.5161 0.6135 l
0.5161 0.6133 l
0.5161 0.6122 l
0.5161 0.6120 l
0.5161 0.6118 l
0.5161 0.6106 l
0.5162 0.6104 l
0.5162 0.6102 l
0.5162 0.6096 l
0.5162 0.6095 l
0.5162 0.6090 l
0.5162 0.6088 l
0.5162 0.6087 l
0.5162 0.6082 l
0.5162 0.6081 l
0.5162 0.6074 l
0.5162 0.6073 l
0.5162 0.6072 l
0.5162 0.6058 l
0.5162 0.6057 l
0.5162 0.6056 l
0.5163 0.6050 l
0.5163 0.6049 l
0.5163 0.6049 l
0.5163 0.6042 l
0.5163 0.6041 l
0.5163 0.6041 l
0.5163 0.6034 l
0.5163 0.6034 l
0.5163 0.6033 l
0.5163 0.6026 l
0.5163 0.6026 l
0.5163 0.6025 l
0.5163 0.6018 l
0.5163 0.6018 l
0.5163 0.6018 l
0.5163 0.6010 l
0.5163 0.6010 l
0.5163 0.6010 l
0.5163 0.6007 l
0.5163 0.6002 l
0.5163 0.6002 l
0.5164 0.5995 l
0.5164 0.5994 l
0.5164 0.5994 l
0.5164 0.5987 l
0.5164 0.5979 l
0.5164 0.5979 l
0.5164 0.5978 l
0.5164 0.5964 l
0.5164 0.5963 l
0.5164 0.5962 l
0.5165 0.5955 l
0.5165 0.5949 l
0.5165 0.5947 l
0.5165 0.5946 l
0.5165 0.5940 l
0.5165 0.5933 l
0.5165 0.5932 l
0.5165 0.5930 l
0.5165 0.5918 l
0.5165 0.5916 l
0.5165 0.5914 l
0.5166 0.5903 l
0.5166 0.5900 l
0.5166 0.5898 l
0.5166 0.5893 l
0.5166 0.5887 l
0.5166 0.5885 l
0.5166 0.5882 l
0.5166 0.5877 l
0.5166 0.5872 l
0.5166 0.5869 l
0.5166 0.5866 l
0.5166 0.5856 l
0.5166 0.5853 l
0.5166 0.5851 l
0.5167 0.5841 l
0.5167 0.5838 l
0.5167 0.5835 l
0.5167 0.5830 l
0.5167 0.5825 l
0.5167 0.5822 l
0.5167 0.5819 l
0.5167 0.5814 l
0.5167 0.5810 l
0.5167 0.5806 l
0.5167 0.5803 l
0.5167 0.5795 l
0.5167 0.5791 l
0.5167 0.5787 l
0.5167 0.5779 l
0.5167 0.5775 l
0.5167 0.5771 l
0.5168 0.5767 l
0.5168 0.5764 l
0.5168 0.5760 l
0.5168 0.5755 l
0.5168 0.5752 l
0.5168 0.5748 l
0.5168 0.5744 l
0.5168 0.5740 l
0.5168 0.5733 l
0.5168 0.5728 l
0.5168 0.5724 l
0.5168 0.5717 l
0.5168 0.5713 l
0.5168 0.5708 l
0.5168 0.5705 l
0.5168 0.5701 l
0.5168 0.5697 l
0.5168 0.5692 l
0.5168 0.5689 l
0.5168 0.5686 l
0.5168 0.5681 l
0.5168 0.5676 l
0.5168 0.5670 l
0.5168 0.5666 l
0.5168 0.5661 l
0.5169 0.5655 l
0.5169 0.5650 l
0.5169 0.5645 l
0.5169 0.5642 l
0.5169 0.5639 l
0.5169 0.5634 l
0.5169 0.5629 l
0.5169 0.5626 l
0.5169 0.5624 l
0.5169 0.5619 l
0.5169 0.5613 l
0.5169 0.5608 l
0.5169 0.5603 l
0.5169 0.5598 l
0.5169 0.5593 l
0.5169 0.5587 l
0.5169 0.5582 l
0.5169 0.5579 l
0.5169 0.5577 l
0.5169 0.5572 l
0.5169 0.5566 l
0.5169 0.5564 l
0.5169 0.5561 l
0.5169 0.5556 l
0.5169 0.5550 l
0.5169 0.5546 l
0.5169 0.5540 l
0.5169 0.5535 l
0.5169 0.5530 l
0.5169 0.5525 l
0.5169 0.5519 l
0.5169 0.5517 l
0.5170 0.5515 l
0.5170 0.5509 l
0.5170 0.5503 l
0.5170 0.5501 l
0.5170 0.5499 l
0.5170 0.5493 l
0.5170 0.5487 l
0.5170 0.5484 l
0.5170 0.5478 l
0.5170 0.5472 l
0.5170 0.5468 l
0.5170 0.5462 l
0.5170 0.5456 l
0.5170 0.5454 l
0.5170 0.5452 l
0.5170 0.5446 l
0.5170 0.5440 l
0.5170 0.5438 l
0.5170 0.5437 l
0.5170 0.5431 l
0.5170 0.5425 l
0.5170 0.5421 l
0.5170 0.5415 l
0.5170 0.5409 l
0.5170 0.5406 l
0.5170 0.5399 l
0.5170 0.5393 l
0.5170 0.5391 l
0.5170 0.5390 l
0.5170 0.5384 l
0.5170 0.5377 l
0.5170 0.5376 l
0.5170 0.5374 l
0.5170 0.5368 l
0.5170 0.5362 l
0.5170 0.5359 l
0.5170 0.5352 l
0.5170 0.5346 l
0.5170 0.5343 l
0.5170 0.5337 l
0.5170 0.5330 l
0.5170 0.5329 l
0.5170 0.5328 l
0.5170 0.5321 l
0.5170 0.5315 l
0.5170 0.5313 l
0.5170 0.5312 l
0.5170 0.5305 l
0.5170 0.5299 l
0.5170 0.5296 l
0.5170 0.5290 l
0.5170 0.5283 l
0.5170 0.5281 l
0.5170 0.5274 l
0.5170 0.5267 l
0.5170 0.5266 l
0.5170 0.5265 l
0.5170 0.5258 l
0.5170 0.5252 l
0.5170 0.5251 l
0.5170 0.5249 l
0.5170 0.5243 l
0.5170 0.5236 l
0.5171 0.5234 l
0.5171 0.5227 l
0.5171 0.5220 l
0.5171 0.5218 l
0.5171 0.5211 l
0.5171 0.5205 l
0.5171 0.5204 l
0.5171 0.5203 l
0.5171 0.5196 l
0.5171 0.5189 l
0.5171 0.5188 l
0.5171 0.5187 l
0.5171 0.5180 l
0.5171 0.5173 l
0.5171 0.5171 l
0.5171 0.5164 l
0.5171 0.5158 l
0.5171 0.5156 l
0.5171 0.5149 l
0.5171 0.5142 l
0.5171 0.5141 l
0.5171 0.5140 l
0.5171 0.5133 l
0.5171 0.5126 l
0.5171 0.5125 l
0.5171 0.5124 l
0.5171 0.5117 l
0.5171 0.5110 l
0.5171 0.5109 l
0.5171 0.5102 l
0.5171 0.5095 l
0.5171 0.5093 l
0.5171 0.5086 l
0.5171 0.5079 l
0.5171 0.5078 l
0.5171 0.5078 l
0.5171 0.5070 l
0.5171 0.5063 l
0.5171 0.5063 l
0.5171 0.5062 l
0.5171 0.5055 l
0.5171 0.5048 l
0.5171 0.5046 l
0.5171 0.5039 l
0.5171 0.5032 l
0.5171 0.5031 l
0.5171 0.5023 l
0.5171 0.5016 l
0.5171 0.5016 l
0.5171 0.5015 l
0.5171 0.5008 l
0.5171 0.5001 l
0.5171 0.5000 l
0.5171 0.4999 l
0.5171 0.4992 l
0.5171 0.4985 l
0.5171 0.4984 l
0.5171 0.4977 l
0.5171 0.4969 l
0.5171 0.4968 l
0.5171 0.4961 l
0.5171 0.4954 l
0.5171 0.4953 l
0.5171 0.4952 l
0.5171 0.4945 l
0.5171 0.4938 l
0.5171 0.4937 l
0.5171 0.4937 l
0.5171 0.4930 l
0.5171 0.4922 l
0.5171 0.4921 l
0.5171 0.4914 l
0.5171 0.4907 l
0.5171 0.4906 l
0.5171 0.4898 l
0.5171 0.4891 l
0.5171 0.4890 l
0.5171 0.4890 l
0.5171 0.4883 l
0.5171 0.4875 l
0.5171 0.4875 l
0.5171 0.4874 l
0.5171 0.4867 l
0.5171 0.4860 l
0.5171 0.4859 l
0.5171 0.4851 l
0.5171 0.4844 l
0.5171 0.4843 l
0.5171 0.4836 l
0.5171 0.4828 l
0.5171 0.4828 l
0.5171 0.4827 l
0.5171 0.4820 l
0.5171 0.4813 l
0.5171 0.4812 l
0.5171 0.4812 l
0.5171 0.4804 l
0.5171 0.4797 l
0.5171 0.4796 l
0.5171 0.4789 l
0.5171 0.4781 l
0.5171 0.4780 l
0.5171 0.4773 l
0.5171 0.4766 l
0.5171 0.4765 l
0.5171 0.4765 l
0.5171 0.4757 l
0.5171 0.4750 l
0.5171 0.4749 l
0.5171 0.4749 l
0.5171 0.4742 l
0.5171 0.4734 l
0.5171 0.4733 l
0.5171 0.4726 l
0.5171 0.4718 l
0.5171 0.4718 l
0.5171 0.4710 l
0.5171 0.4703 l
0.5171 0.4702 l
0.5171 0.4702 l
0.5171 0.4695 l
0.5171 0.4687 l
0.5171 0.4687 l
0.5171 0.4686 l
0.5171 0.4679 l
0.5171 0.4671 l
0.5171 0.4671 l
0.5171 0.4663 l
0.5171 0.4656 l
0.5171 0.4655 l
0.5171 0.4648 l
0.5171 0.4640 l
0.5171 0.4640 l
0.5171 0.4640 l
0.5171 0.4632 l
0.5171 0.4624 l
0.5171 0.4624 l
0.5171 0.4624 l
0.5171 0.4616 l
0.5171 0.4609 l
0.5171 0.4608 l
0.5171 0.4601 l
0.5171 0.4593 l
0.5171 0.4593 l
0.5171 0.4585 l
0.5171 0.4577 l
0.5171 0.4577 l
0.5171 0.4577 l
0.5171 0.4569 l
0.5171 0.4562 l
0.5171 0.4562 l
0.5171 0.4561 l
0.5171 0.4554 l
0.5171 0.4546 l
0.5171 0.4546 l
0.5171 0.4538 l
0.5171 0.4530 l
0.5171 0.4530 l
0.5171 0.4522 l
0.5171 0.4515 l
0.5171 0.4515 l
0.5171 0.4514 l
0.5171 0.4507 l
0.5171 0.4499 l
0.5171 0.4499 l
0.5171 0.4499 l
0.5171 0.4491 l
0.5171 0.4483 l
0.5171 0.4483 l
0.5171 0.4475 l
0.5171 0.4468 l
0.5171 0.4467 l
0.5171 0.4460 l
0.5171 0.4452 l
0.5171 0.4452 l
0.5171 0.4452 l
0.5171 0.4444 l
0.5171 0.4436 l
0.5171 0.4436 l
0.5171 0.4436 l
0.5171 0.4428 l
0.5171 0.4421 l
0.5171 0.4420 l
0.5171 0.4413 l
0.5171 0.4405 l
0.5172 0.4405 l
0.5172 0.4397 l
0.5172 0.4389 l
0.5172 0.4389 l
0.5172 0.4389 l
0.5172 0.4381 l
0.5172 0.4374 l
0.5172 0.4374 l
0.5172 0.4373 l
0.5172 0.4366 l
0.5172 0.4358 l
0.5172 0.4358 l
0.5172 0.4350 l
0.5172 0.4342 l
0.5172 0.4342 l
0.5172 0.4334 l
0.5172 0.4327 l
0.5172 0.4327 l
0.5172 0.4326 l
0.5172 0.4319 l
0.5172 0.4311 l
0.5172 0.4311 l
0.5172 0.4311 l
0.5172 0.4303 l
0.5172 0.4295 l
0.5172 0.4295 l
0.5172 0.4287 l
0.5172 0.4280 l
0.5172 0.4280 l
0.5172 0.4272 l
0.5172 0.4264 l
0.5172 0.4264 l
0.5172 0.4264 l
0.5172 0.4256 l
0.5172 0.4248 l
0.5172 0.4248 l
0.5172 0.4248 l
0.5172 0.4240 l
0.5172 0.4233 l
0.5172 0.4233 l
0.5172 0.4225 l
0.5172 0.4217 l
0.5172 0.4217 l
0.5172 0.4209 l
0.5172 0.4201 l
0.5172 0.4201 l
0.5172 0.4201 l
0.5172 0.4194 l
0.5172 0.4186 l
0.5172 0.4186 l
0.5172 0.4186 l
0.5172 0.4178 l
0.5172 0.4170 l
0.5172 0.4170 l
0.5172 0.4162 l
0.5172 0.4154 l
0.5172 0.4154 l
0.5172 0.4147 l
0.5172 0.4139 l
0.5172 0.4139 l
0.5172 0.4139 l
0.5172 0.4131 l
0.5172 0.4123 l
0.5172 0.4123 l
0.5172 0.4123 l
0.5172 0.4115 l
0.5172 0.4107 l
0.5172 0.4107 l
0.5172 0.4100 l
0.5172 0.4092 l
0.5172 0.4092 l
0.5172 0.4084 l
0.5172 0.4076 l
0.5172 0.4076 l
0.5172 0.4076 l
0.5172 0.4068 l
0.5172 0.4060 l
0.5172 0.4060 l
0.5172 0.4060 l
0.5172 0.4053 l
0.5172 0.4045 l
0.5172 0.4045 l
0.5172 0.4037 l
0.5172 0.4029 l
0.5172 0.4029 l
0.5172 0.4021 l
0.5172 0.4013 l
0.5172 0.4013 l
0.5172 0.4013 l
0.5172 0.4006 l
0.5172 0.3998 l
0.5172 0.3998 l
0.5172 0.3998 l
0.5172 0.3990 l
0.5172 0.3982 l
0.5172 0.3982 l
0.5172 0.3974 l
0.5172 0.3967 l
0.5172 0.3966 l
0.5172 0.3959 l
0.5172 0.3951 l
0.5172 0.3951 l
0.5172 0.3951 l
0.5172 0.3943 l
0.5172 0.3935 l
0.5172 0.3935 l
0.5172 0.3935 l
0.5172 0.3927 l
0.5172 0.3920 l
0.5172 0.3919 l
0.5172 0.3912 l
0.5172 0.3904 l
0.5172 0.3904 l
0.5172 0.3896 l
0.5172 0.3888 l
0.5172 0.3888 l
0.5172 0.3888 l
0.5172 0.3880 l
0.5172 0.3873 l
0.5172 0.3872 l
0.5172 0.3872 l
0.5172 0.3865 l
0.5172 0.3857 l
0.5172 0.3857 l
0.5172 0.3849 l
0.5172 0.3841 l
0.5172 0.3841 l
0.5172 0.3833 l
0.5172 0.3826 l
0.5172 0.3826 l
0.5172 0.3825 l
0.5172 0.3818 l
0.5172 0.3810 l
0.5172 0.3810 l
0.5172 0.3810 l
0.5172 0.3802 l
0.5172 0.3794 l
0.5172 0.3794 l
0.5172 0.3786 l
0.5172 0.3779 l
0.5172 0.3778 l
0.5172 0.3771 l
0.5172 0.3763 l
0.5172 0.3763 l
0.5172 0.3763 l
0.5172 0.3755 l
0.5172 0.3747 l
0.5172 0.3747 l
0.5172 0.3747 l
0.5172 0.3739 l
0.5172 0.3732 l
0.5172 0.3732 l
0.5172 0.3724 l
0.5172 0.3716 l
0.5172 0.3716 l
0.5172 0.3708 l
0.5172 0.3700 l
0.5172 0.3700 l
0.5172 0.3700 l
0.5172 0.3692 l
0.5172 0.3685 l
0.5172 0.3685 l
0.5172 0.3685 l
0.5172 0.3677 l
0.5172 0.3669 l
0.5172 0.3669 l
0.5172 0.3661 l
0.5172 0.3653 l
0.5172 0.3653 l
0.5172 0.3645 l
0.5172 0.3638 l
0.5172 0.3638 l
0.5172 0.3638 l
0.5172 0.3630 l
0.5172 0.3622 l
0.5172 0.3622 l
0.5172 0.3622 l
0.5172 0.3614 l
0.5172 0.3606 l
0.5172 0.3606 l
0.5172 0.3598 l
0.5172 0.3591 l
0.5172 0.3591 l
0.5172 0.3583 l
0.5172 0.3575 l
0.5172 0.3575 l
0.5172 0.3575 l
0.5172 0.3567 l
0.5172 0.3559 l
0.5172 0.3559 l
0.5172 0.3559 l
0.5172 0.3551 l
0.5172 0.3544 l
0.5172 0.3544 l
0.5172 0.3536 l
0.5172 0.3528 l
0.5172 0.3528 l
0.5172 0.3520 l
0.5172 0.3512 l
0.5172 0.3512 l
0.5172 0.3512 l
0.5172 0.3504 l
0.5172 0.3497 l
0.5172 0.3497 l
0.5172 0.3497 l
0.5172 0.3489 l
0.5172 0.3481 l
0.5172 0.3481 l
0.5172 0.3473 l
0.5172 0.3465 l
0.5172 0.3465 l
0.5172 0.3457 l
0.5172 0.3450 l
0.5172 0.3450 l
0.5172 0.3450 l
0.5172 0.3442 l
0.5172 0.3434 l
0.5172 0.3434 l
0.5172 0.3434 l
0.5172 0.3426 l
0.5172 0.3418 l
0.5172 0.3418 l
0.5172 0.3411 l
0.5172 0.3403 l
0.5172 0.3403 l
0.5172 0.3395 l
0.5172 0.3387 l
0.5172 0.3387 l
0.5172 0.3387 l
0.5172 0.3379 l
0.5172 0.3371 l
0.5172 0.3371 l
0.5172 0.3371 l
0.5172 0.3364 l
0.5172 0.3356 l
0.5172 0.3356 l
0.5172 0.3348 l
0.5172 0.3340 l
0.5172 0.3340 l
0.5172 0.3332 l
0.5172 0.3324 l
0.5172 0.3324 l
0.5172 0.3324 l
0.5172 0.3317 l
0.5172 0.3309 l
0.5172 0.3309 l
0.5172 0.3309 l
0.5172 0.3301 l
0.5172 0.3293 l
0.5172 0.3293 l
0.5172 0.3285 l
0.5172 0.3277 l
0.5172 0.3277 l
0.5172 0.3270 l
0.5172 0.3262 l
0.5172 0.3262 l
0.5172 0.3262 l
0.5172 0.3254 l
0.5172 0.3246 l
0.5172 0.3246 l
0.5172 0.3246 l
0.5172 0.3238 l
0.5172 0.3230 l
0.5172 0.3230 l
0.5172 0.3223 l
0.5172 0.3215 l
0.5172 0.3215 l
0.5172 0.3207 l
0.5172 0.3199 l
0.5172 0.3199 l
0.5172 0.3199 l
0.5172 0.3199 l
0.5180 0.3199 l
0.5188 0.3199 l
0.5188 0.3199 l
0.5189 0.3199 l
0.5195 0.3199 l
0.5197 0.3199 l
0.5205 0.3199 l
0.5205 0.3199 l
0.5205 0.3199 l
0.5214 0.3199 l
0.5222 0.3200 l
0.5223 0.3200 l
0.5230 0.3200 l
0.5238 0.3200 l
0.5240 0.3200 l
0.5247 0.3200 l
0.5254 0.3200 l
0.5274 0.3200 l
0.5281 0.3201 l
0.5287 0.3201 l
0.5308 0.3201 l
0.5314 0.3201 l
0.5320 0.3201 l
0.5342 0.3202 l
0.5348 0.3202 l
0.5353 0.3202 l
0.5377 0.3202 l
0.5381 0.3203 l
0.5386 0.3203 l
0.5411 0.3203 l
0.5415 0.3203 l
0.5419 0.3203 l
0.5445 0.3204 l
0.5449 0.3204 l
0.5452 0.3204 l
0.5479 0.3204 l
0.5482 0.3205 l
0.5485 0.3205 l
0.5514 0.3205 l
0.5516 0.3205 l
0.5518 0.3205 l
0.5548 0.3206 l
0.5549 0.3206 l
0.5551 0.3206 l
0.5582 0.3206 l
0.5583 0.3206 l
0.5584 0.3206 l
0.5616 0.3207 l
0.5616 0.3207 l
0.5617 0.3207 l
0.5650 0.3207 l
0.5650 0.3207 l
0.5650 0.3207 l
0.5683 0.3207 l
0.5683 0.3207 l
0.5684 0.3207 l
0.5717 0.3207 l
0.5717 0.3207 l
0.5717 0.3207 l
0.5750 0.3207 l
0.5751 0.3207 l
0.5751 0.3207 l
0.5784 0.3207 l
0.5784 0.3207 l
0.5784 0.3207 l
0.5818 0.3207 l
0.5818 0.3207 l
0.5818 0.3207 l
0.5851 0.3207 l
0.5851 0.3207 l
0.5851 0.3207 l
0.5885 0.3207 l
0.5885 0.3207 l
0.5885 0.3207 l
0.5918 0.3207 l
0.5918 0.3207 l
0.5918 0.3207 l
0.5952 0.3207 l
0.5952 0.3207 l
0.5952 0.3207 l
0.5985 0.3207 l
0.5985 0.3207 l
0.5986 0.3207 l
0.6019 0.3207 l
0.6019 0.3207 l
0.6019 0.3207 l
0.6052 0.3207 l
0.6053 0.3207 l
0.6053 0.3207 l
0.6086 0.3207 l
0.6086 0.3207 l
0.6086 0.3207 l
0.6120 0.3207 l
0.6120 0.3207 l
0.6120 0.3207 l
0.6153 0.3207 l
0.6153 0.3207 l
0.6153 0.3207 l
0.6187 0.3207 l
0.6187 0.3207 l
0.6187 0.3207 l
0.6220 0.3207 l
0.6220 0.3207 l
0.6220 0.3207 l
0.6254 0.3207 l
0.6254 0.3207 l
0.6254 0.3207 l
0.6287 0.3207 l
0.6287 0.3207 l
0.6288 0.3207 l
0.6321 0.3207 l
0.6321 0.3207 l
0.6321 0.3207 l
0.6354 0.3207 l
0.6355 0.3207 l
0.6355 0.3207 l
0.6388 0.3207 l
0.6388 0.3207 l
0.6388 0.3207 l
0.6422 0.3207 l
0.6422 0.3207 l
0.6422 0.3207 l
0.6455 0.3207 l
0.6455 0.3207 l
0.6455 0.3207 l
0.6489 0.3207 l
0.6489 0.3207 l
0.6489 0.3207 l
0.6522 0.3207 l
0.6522 0.3207 l
0.6522 0.3207 l
0.6556 0.3207 l
0.6556 0.3207 l
0.6556 0.3207 l
0.6589 0.3207 l
0.6589 0.3207 l
0.6590 0.3207 l
0.6623 0.3207 l
0.6623 0.3207 l
0.6623 0.3207 l
0.6657 0.3207 l
0.6657 0.3207 l
0.6657 0.3207 l
0.6690 0.3207 l
0.6690 0.3207 l
0.6690 0.3207 l
0.6724 0.3207 l
0.6724 0.3207 l
0.6724 0.3207 l
0.6757 0.3207 l
0.6757 0.3207 l
0.6757 0.3207 l
0.6791 0.3207 l
0.6791 0.3207 l
0.6791 0.3207 l
0.6824 0.3207 l
0.6824 0.3207 l
0.6824 0.3207 l
0.6858 0.3207 l
0.6858 0.3207 l
0.6858 0.3207 l
0.6891 0.3207 l
0.6891 0.3207 l
0.6892 0.3207 l
0.6925 0.3207 l
0.6925 0.3207 l
0.6925 0.3207 l
0.6959 0.3207 l
0.6959 0.3207 l
0.6959 0.3207 l
0.6992 0.3207 l
0.6992 0.3207 l
0.6992 0.3207 l
0.7026 0.3207 l
0.7026 0.3207 l
0.7026 0.3207 l
0.7059 0.3207 l
0.7059 0.3207 l
0.7059 0.3207 l
0.7093 0.3207 l
0.7093 0.3207 l
0.7093 0.3207 l
0.7126 0.3207 l
0.7126 0.3207 l
0.7126 0.3207 l
0.7160 0.3207 l
0.7160 0.3207 l
0.7160 0.3207 l
0.7193 0.3207 l
0.7194 0.3207 l
0.7194 0.3207 l
0.7227 0.3207 l
0.7227 0.3207 l
0.7227 0.3207 l
0.7261 0.3207 l
0.7261 0.3207 l
0.7261 0.3207 l
0.7294 0.3207 l
0.7294 0.3207 l
0.7294 0.3207 l
0.7328 0.3207 l
0.7328 0.3207 l
0.7328 0.3207 l
0.7361 0.3207 l
0.7361 0.3207 l
0.7361 0.3207 l
0.7395 0.3207 l
0.7395 0.3207 l
0.7395 0.3207 l
0.7428 0.3207 l
0.7428 0.3207 l
0.7429 0.3207 l
0.7462 0.3207 l
0.7462 0.3207 l
0.7462 0.3207 l
0.7495 0.3207 l
0.7496 0.3207 l
0.7496 0.3207 l
0.7529 0.3207 l
0.7529 0.3207 l
0.7529 0.3207 l
0.7563 0.3207 l
0.7563 0.3207 l
0.7563 0.3207 l
0.7596 0.3207 l
0.7596 0.3207 l
0.7596 0.3207 l
0.7630 0.3207 l
0.7630 0.3207 l
0.7630 0.3207 l
0.7663 0.3207 l
0.7663 0.3207 l
0.7663 0.3207 l
0.7697 0.3207 l
0.7697 0.3207 l
0.7697 0.3207 l
0.7730 0.3207 l
0.7730 0.3207 l
0.7731 0.3207 l
0.7764 0.3207 l
0.7764 0.3207 l
0.7764 0.3207 l
0.7797 0.3207 l
0.7798 0.3207 l
0.7798 0.3207 l
0.7831 0.3207 l
0.7831 0.3207 l
0.7831 0.3207 l
0.7865 0.3207 l
0.7865 0.3207 l
0.7865 0.3207 l
0.7898 0.3207 l
0.7898 0.3207 l
0.7898 0.3207 l
0.7932 0.3207 l
0.7932 0.3207 l
0.7932 0.3207 l
0.7965 0.3207 l
0.7965 0.3207 l
0.7965 0.3207 l
0.7999 0.3207 l
0.7999 0.3207 l
0.7999 0.3207 l
0.8032 0.3207 l
0.8032 0.3207 l
0.8033 0.3207 l
0.8066 0.3207 l
0.8066 0.3207 l
0.8066 0.3207 l
0.8099 0.3207 l
0.8100 0.3207 l
0.8100 0.3207 l
0.8133 0.3207 l
0.8133 0.3207 l
0.8133 0.3207 l
0.8167 0.3207 l
0.8167 0.3207 l
0.8167 0.3207 l
0.8200 0.3207 l
0.8200 0.3207 l
0.8200 0.3207 l
0.8234 0.3207 l
0.8234 0.3207 l
0.8234 0.3207 l
0.8267 0.3207 l
0.8267 0.3207 l
0.8267 0.3207 l
0.8301 0.3207 l
0.8301 0.3207 l
0.8301 0.3207 l
0.8334 0.3207 l
0.8334 0.3207 l
0.8335 0.3207 l
0.8368 0.3207 l
0.8368 0.3207 l
0.8368 0.3207 l
0.8401 0.3207 l
0.8402 0.3207 l
0.8402 0.3207 l
0.8435 0.3207 l
0.8435 0.3207 l
0.8435 0.3207 l
0.8469 0.3207 l
0.8469 0.3207 l
0.8469 0.3207 l
0.8502 0.3207 l
0.8502 0.3207 l
0.8502 0.3207 l
0.8536 0.3207 l
0.8536 0.3207 l
0.8536 0.3207 l
0.8569 0.3207 l
0.8569 0.3207 l
0.8569 0.3207 l
0.8603 0.3207 l
0.8603 0.3207 l
0.8603 0.3207 l
0.8636 0.3207 l
0.8636 0.3207 l
0.8637 0.3207 l
0.8670 0.3207 l
0.8670 0.3207 l
0.8670 0.3207 l
0.8703 0.3207 l
0.8704 0.3207 l
0.8704 0.3207 l
0.8737 0.3207 l
0.8737 0.3207 l
0.8737 0.3207 l
0.8771 0.3207 l
0.8771 0.3207 l
0.8771 0.3207 l
0.8804 0.3207 l
0.8804 0.3207 l
0.8804 0.3207 l
0.8838 0.3207 l
0.8838 0.3207 l
0.8838 0.3207 l
0.8871 0.3207 l
0.8871 0.3207 l
0.8871 0.3207 l
0.8905 0.3207 l
0.8905 0.3207 l
0.8905 0.3207 l
0.8938 0.3207 l
0.8938 0.3207 l
0.8939 0.3207 l
0.8972 0.3207 l
0.8972 0.3207 l
0.8972 0.3207 l
0.9005 0.3207 l
0.9006 0.3207 l
0.9006 0.3207 l
0.9039 0.3207 l
0.9039 0.3207 l
0.9039 0.3207 l
0.9073 0.3207 l
0.9073 0.3207 l
0.9073 0.3207 l
0.9106 0.3207 l
0.9106 0.3207 l
0.9106 0.3207 l
0.9140 0.3207 l
0.9140 0.3207 l
0.9140 0.3207 l
0.9173 0.3207 l
0.9173 0.3207 l
0.9173 0.3207 l
0.9207 0.3207 l
0.9207 0.3207 l
0.9207 0.3207 l
0.9240 0.3207 l
0.9240 0.3207 l
0.9241 0.3207 l
0.9274 0.3207 l
0.9274 0.3207 l
0.9274 0.3207 l
0.9308 0.3207 l
0.9308 0.3207 l
0.9308 0.3207 l
0.9341 0.3207 l
0.9341 0.3207 l
0.9341 0.3207 l
0.9375 0.3207 l
0.9375 0.3207 l
0.9375 0.3207 l
0.9408 0.3207 l
0.9408 0.3207 l
0.9408 0.3207 l
0.9442 0.3207 l
0.9442 0.3207 l
0.9442 0.3207 l
0.9475 0.3207 l
0.9475 0.3207 l
0.9475 0.3207 l
0.9509 0.3207 l
0.9509 0.3207 l
0.9509 0.3207 l
0.9542 0.3207 l
0.9543 0.3207 l
0.9543 0.3207 l
0.9576 0.3207 l
0.9576 0.3207 l
0.9576 0.3207 l
0.9610 0.3207 l
0.9610 0.3207 l
0.9610 0.3207 l
0.9643 0.3207 l
0.9643 0.3207 l
0.9643 0.3207 l
0.9677 0.3207 l
0.9677 0.3207 l
0.9677 0.3207 l
0.9710 0.3207 l
0.9710 0.3207 l
0.9710 0.3207 l
0.9744 0.3207 l
0.9744 0.3207 l
0.9744 0.3207 l
0.9777 0.3207 l
0.9777 0.3207 l
0.9777 0.3207 l
0.9811 0.3207 l
0.9811 0.3207 l
0.9811 0.3207 l
0.9844 0.3207 l
0.9845 0.3207 l
0.9845 0.3207 l
0.9878 0.3207 l
0.9878 0.3207 l
0.9878 0.3207 l
0.9912 0.3207 l
0.9912 0.3207 l
0.9912 0.3207 l
0.9945 0.3207 l
0.9945 0.3207 l
0.9945 0.3207 l
0.9979 0.3207 l
0.9979 0.3207 l
0.9979 0.3207 l
1.0012 0.3207 l
1.0012 0.3207 l
1.0012 0.3207 l
1.0046 0.3207 l
1.0046 0.3207 l
1.0046 0.3207 l
1.0079 0.3207 l
1.0079 0.3207 l
1.0080 0.3207 l
s
[/DeviceRGB] SCS
Color10 SC
[] 0 SD
0.0060 SLW
n
0.3167 0.8044 m
0.3181 0.8044 l
0.3186 0.8044 l
0.3200 0.8044 l
0.3215 0.8044 l
0.3219 0.8044 l
0.3234 0.8044 l
0.3248 0.8044 l
0.3253 0.8043 l
0.3267 0.8044 l
0.3281 0.8043 l
0.3287 0.8043 l
0.3301 0.8043 l
0.3315 0.8043 l
0.3321 0.8043 l
0.3334 0.8043 l
0.3348 0.8043 l
0.3355 0.8043 l
0.3368 0.8043 l
0.3381 0.8042 l
0.3389 0.8042 l
0.3402 0.8042 l
0.3414 0.8042 l
0.3423 0.8042 l
0.3435 0.8042 l
0.3447 0.8042 l
0.3456 0.8042 l
0.3469 0.8042 l
0.3481 0.8041 l
0.3491 0.8041 l
0.3502 0.8041 l
0.3514 0.8041 l
0.3525 0.8041 l
0.3536 0.8041 l
0.3547 0.8040 l
0.3559 0.8040 l
0.3569 0.8040 l
0.3580 0.8040 l
0.3593 0.8040 l
0.3603 0.8039 l
0.3613 0.8039 l
0.3627 0.8039 l
0.3636 0.8039 l
0.3645 0.8039 l
0.3661 0.8038 l
0.3670 0.8038 l
0.3678 0.8038 l
0.3696 0.8037 l
0.3704 0.8037 l
0.3711 0.8037 l
0.3730 0.8036 l
0.3737 0.8036 l
0.3744 0.8036 l
0.3765 0.8036 l
0.3771 0.8035 l
0.3776 0.8035 l
0.3800 0.8034 l
0.3804 0.8034 l
0.3809 0.8034 l
0.3835 0.8033 l
0.3838 0.8033 l
0.3841 0.8033 l
0.3870 0.8032 l
0.3871 0.8032 l
0.3873 0.8032 l
0.3905 0.8030 l
0.3905 0.8030 l
0.3910 0.8030 l
0.3937 0.8029 l
0.3938 0.8029 l
0.3940 0.8029 l
0.3969 0.8027 l
0.3972 0.8027 l
0.3975 0.8027 l
0.4001 0.8026 l
0.4006 0.8025 l
0.4011 0.8025 l
0.4032 0.8024 l
0.4039 0.8023 l
0.4047 0.8023 l
0.4064 0.8022 l
0.4073 0.8021 l
0.4083 0.8020 l
0.4095 0.8019 l
0.4106 0.8019 l
0.4120 0.8018 l
0.4126 0.8017 l
0.4140 0.8016 l
0.4156 0.8014 l
0.4157 0.8014 l
0.4173 0.8013 l
0.4187 0.8012 l
0.4194 0.8011 l
0.4207 0.8010 l
0.4217 0.8008 l
0.4232 0.8007 l
0.4240 0.8006 l
0.4247 0.8005 l
0.4271 0.8002 l
0.4274 0.8002 l
0.4277 0.8001 l
0.4295 0.7999 l
0.4306 0.7997 l
0.4308 0.7997 l
0.4310 0.7997 l
0.4335 0.7993 l
0.4341 0.7992 l
0.4350 0.7991 l
0.4364 0.7989 l
0.4375 0.7987 l
0.4391 0.7984 l
0.4392 0.7984 l
0.4408 0.7981 l
0.4420 0.7978 l
0.4433 0.7975 l
0.4442 0.7974 l
0.4468 0.7968 l
0.4474 0.7966 l
0.4475 0.7966 l
0.4478 0.7965 l
0.4501 0.7960 l
0.4509 0.7958 l
0.4524 0.7953 l
0.4527 0.7953 l
0.4543 0.7948 l
0.4552 0.7945 l
0.4574 0.7938 l
0.4576 0.7937 l
0.4577 0.7937 l
0.4579 0.7936 l
0.4593 0.7932 l
0.4601 0.7929 l
0.4610 0.7926 l
0.4622 0.7921 l
0.4625 0.7919 l
0.4629 0.7918 l
0.4643 0.7912 l
0.4659 0.7905 l
0.4671 0.7900 l
0.4677 0.7897 l
0.4693 0.7889 l
0.4695 0.7888 l
0.4710 0.7880 l
0.4715 0.7878 l
0.4721 0.7874 l
0.4727 0.7870 l
0.4735 0.7866 l
0.4744 0.7860 l
0.4748 0.7858 l
0.4755 0.7853 l
0.4771 0.7842 l
0.4775 0.7840 l
0.4777 0.7838 l
0.4794 0.7826 l
0.4800 0.7821 l
0.4811 0.7813 l
0.4812 0.7812 l
0.4813 0.7811 l
0.4829 0.7797 l
0.4845 0.7783 l
0.4846 0.7781 l
0.4848 0.7780 l
0.4862 0.7765 l
0.4876 0.7750 l
0.4878 0.7748 l
0.4878 0.7748 l
0.4878 0.7748 l
0.4893 0.7731 l
0.4904 0.7717 l
0.4907 0.7713 l
0.4912 0.7707 l
0.4921 0.7694 l
0.4927 0.7686 l
0.4934 0.7675 l
0.4945 0.7658 l
0.4947 0.7656 l
0.4947 0.7654 l
0.4950 0.7650 l
0.4959 0.7636 l
0.4965 0.7623 l
0.4970 0.7615 l
0.4979 0.7598 l
0.4981 0.7594 l
0.4982 0.7592 l
0.4984 0.7587 l
0.4991 0.7572 l
0.4996 0.7562 l
0.4996 0.7560 l
0.5001 0.7550 l
0.5008 0.7533 l
0.5010 0.7529 l
0.5010 0.7527 l
0.5012 0.7523 l
0.5016 0.7513 l
0.5019 0.7504 l
0.5022 0.7498 l
0.5026 0.7485 l
0.5028 0.7481 l
0.5032 0.7466 l
0.5036 0.7457 l
0.5041 0.7440 l
0.5043 0.7435 l
0.5043 0.7433 l
0.5046 0.7425 l
0.5051 0.7408 l
0.5052 0.7404 l
0.5054 0.7397 l
0.5056 0.7388 l
0.5057 0.7383 l
0.5060 0.7372 l
0.5063 0.7363 l
0.5064 0.7358 l
0.5064 0.7357 l
0.5065 0.7355 l
0.5067 0.7345 l
0.5068 0.7341 l
0.5069 0.7335 l
0.5070 0.7332 l
0.5071 0.7326 l
0.5074 0.7315 l
0.5075 0.7310 l
0.5076 0.7306 l
0.5079 0.7290 l
0.5081 0.7280 l
0.5082 0.7279 l
0.5082 0.7276 l
0.5087 0.7254 l
0.5088 0.7247 l
0.5089 0.7238 l
0.5091 0.7227 l
0.5093 0.7216 l
0.5096 0.7201 l
0.5096 0.7200 l
0.5096 0.7199 l
0.5098 0.7185 l
0.5099 0.7182 l
0.5100 0.7173 l
0.5101 0.7169 l
0.5102 0.7164 l
0.5102 0.7159 l
0.5103 0.7153 l
0.5104 0.7146 l
0.5104 0.7145 l
0.5105 0.7138 l
0.5106 0.7132 l
0.5107 0.7128 l
0.5108 0.7122 l
0.5108 0.7118 l
0.5109 0.7110 l
0.5110 0.7106 l
0.5110 0.7104 l
0.5112 0.7092 l
0.5112 0.7091 l
0.5112 0.7090 l
0.5113 0.7082 l
0.5114 0.7076 l
0.5114 0.7075 l
0.5114 0.7074 l
0.5115 0.7067 l
0.5116 0.7062 l
0.5116 0.7059 l
0.5116 0.7056 l
0.5117 0.7048 l
0.5118 0.7044 l
0.5118 0.7039 l
0.5119 0.7033 l
0.5119 0.7028 l
0.5120 0.7021 l
0.5120 0.7019 l
0.5121 0.7012 l
0.5121 0.7010 l
0.5122 0.7005 l
0.5122 0.7004 l
0.5123 0.6997 l
0.5123 0.6991 l
0.5124 0.6987 l
0.5124 0.6981 l
0.5125 0.6976 l
0.5125 0.6969 l
0.5126 0.6965 l
0.5126 0.6962 l
0.5127 0.6952 l
0.5127 0.6950 l
0.5128 0.6948 l
0.5129 0.6935 l
0.5129 0.6934 l
0.5129 0.6933 l
0.5130 0.6923 l
0.5130 0.6919 l
0.5130 0.6918 l
0.5130 0.6918 l
0.5131 0.6904 l
0.5131 0.6903 l
0.5132 0.6901 l
0.5133 0.6890 l
0.5133 0.6887 l
0.5133 0.6884 l
0.5134 0.6875 l
0.5134 0.6871 l
0.5134 0.6867 l
0.5135 0.6860 l
0.5135 0.6856 l
0.5136 0.6850 l
0.5136 0.6846 l
0.5136 0.6840 l
0.5137 0.6833 l
0.5137 0.6831 l
0.5137 0.6824 l
0.5138 0.6817 l
0.5138 0.6816 l
0.5138 0.6815 l
0.5139 0.6809 l
0.5139 0.6802 l
0.5139 0.6800 l
0.5140 0.6793 l
0.5140 0.6787 l
0.5140 0.6785 l
0.5140 0.6783 l
0.5141 0.6777 l
0.5141 0.6775 l
0.5141 0.6772 l
0.5141 0.6770 l
0.5141 0.6767 l
0.5141 0.6765 l
0.5142 0.6762 l
0.5142 0.6757 l
0.5142 0.6754 l
0.5142 0.6750 l
0.5143 0.6746 l
0.5143 0.6743 l
0.5143 0.6734 l
0.5143 0.6730 l
0.5144 0.6728 l
0.5144 0.6723 l
0.5144 0.6717 l
0.5144 0.6715 l
0.5144 0.6713 l
0.5145 0.6709 l
0.5145 0.6707 l
0.5145 0.6705 l
0.5145 0.6700 l
0.5145 0.6699 l
0.5145 0.6698 l
0.5146 0.6692 l
0.5146 0.6691 l
0.5146 0.6690 l
0.5146 0.6684 l
0.5146 0.6683 l
0.5146 0.6683 l
0.5146 0.6676 l
0.5147 0.6674 l
0.5147 0.6668 l
0.5147 0.6668 l
0.5147 0.6667 l
0.5147 0.6661 l
0.5147 0.6660 l
0.5147 0.6659 l
0.5148 0.6653 l
0.5148 0.6652 l
0.5148 0.6651 l
0.5148 0.6646 l
0.5148 0.6644 l
0.5148 0.6643 l
0.5148 0.6638 l
0.5148 0.6636 l
0.5148 0.6635 l
0.5149 0.6631 l
0.5149 0.6629 l
0.5149 0.6627 l
0.5149 0.6623 l
0.5149 0.6621 l
0.5149 0.6618 l
0.5149 0.6616 l
0.5149 0.6613 l
0.5150 0.6610 l
0.5150 0.6608 l
0.5150 0.6605 l
0.5150 0.6602 l
0.5150 0.6601 l
0.5150 0.6597 l
0.5150 0.6594 l
0.5150 0.6593 l
0.5150 0.6589 l
0.5151 0.6586 l
0.5151 0.6585 l
0.5151 0.6584 l
0.5151 0.6582 l
0.5151 0.6578 l
0.5151 0.6578 l
0.5151 0.6574 l
0.5151 0.6570 l
0.5151 0.6569 l
0.5151 0.6566 l
0.5152 0.6563 l
0.5152 0.6561 l
0.5152 0.6558 l
0.5152 0.6555 l
0.5152 0.6553 l
0.5152 0.6550 l
0.5152 0.6548 l
0.5152 0.6545 l
0.5152 0.6543 l
0.5152 0.6540 l
0.5153 0.6537 l
0.5153 0.6535 l
0.5153 0.6533 l
0.5153 0.6529 l
0.5153 0.6527 l
0.5153 0.6525 l
0.5153 0.6521 l
0.5153 0.6519 l
0.5153 0.6518 l
0.5153 0.6513 l
0.5154 0.6511 l
0.5154 0.6510 l
0.5154 0.6504 l
0.5154 0.6503 l
0.5154 0.6502 l
0.5154 0.6496 l
0.5154 0.6496 l
0.5154 0.6495 l
0.5154 0.6488 l
0.5154 0.6488 l
0.5154 0.6487 l
0.5155 0.6480 l
0.5155 0.6480 l
0.5155 0.6472 l
0.5155 0.6472 l
0.5155 0.6472 l
0.5155 0.6472 l
0.5155 0.6464 l
0.5155 0.6464 l
0.5155 0.6464 l
0.5155 0.6457 l
0.5155 0.6456 l
0.5155 0.6456 l
0.5156 0.6449 l
0.5156 0.6449 l
0.5156 0.6448 l
0.5156 0.6442 l
0.5156 0.6441 l
0.5156 0.6440 l
0.5156 0.6434 l
0.5156 0.6433 l
0.5156 0.6432 l
0.5156 0.6426 l
0.5156 0.6425 l
0.5156 0.6424 l
0.5157 0.6419 l
0.5157 0.6417 l
0.5157 0.6416 l
0.5157 0.6411 l
0.5157 0.6409 l
0.5157 0.6408 l
0.5157 0.6404 l
0.5157 0.6402 l
0.5157 0.6399 l
0.5157 0.6396 l
0.5157 0.6394 l
0.5157 0.6391 l
0.5158 0.6388 l
0.5158 0.6386 l
0.5158 0.6383 l
0.5158 0.6381 l
0.5158 0.6378 l
0.5158 0.6375 l
0.5158 0.6373 l
0.5158 0.6370 l
0.5158 0.6367 l
0.5158 0.6365 l
0.5158 0.6362 l
0.5158 0.6359 l
0.5158 0.6358 l
0.5158 0.6355 l
0.5158 0.6351 l
0.5159 0.6350 l
0.5159 0.6347 l
0.5159 0.6343 l
0.5159 0.6342 l
0.5159 0.6339 l
0.5159 0.6335 l
0.5159 0.6335 l
0.5159 0.6331 l
0.5159 0.6327 l
0.5159 0.6327 l
0.5159 0.6323 l
0.5159 0.6320 l
0.5159 0.6319 l
0.5159 0.6315 l
0.5159 0.6312 l
0.5160 0.6311 l
0.5160 0.6308 l
0.5160 0.6304 l
0.5160 0.6303 l
0.5160 0.6300 l
0.5160 0.6297 l
0.5160 0.6295 l
0.5160 0.6292 l
0.5160 0.6289 l
0.5160 0.6287 l
0.5160 0.6284 l
0.5160 0.6281 l
0.5160 0.6279 l
0.5160 0.6276 l
0.5160 0.6274 l
0.5160 0.6271 l
0.5160 0.6268 l
0.5161 0.6266 l
0.5161 0.6263 l
0.5161 0.6261 l
0.5161 0.6258 l
0.5161 0.6255 l
0.5161 0.6253 l
0.5161 0.6251 l
0.5161 0.6247 l
0.5161 0.6245 l
0.5161 0.6243 l
0.5161 0.6239 l
0.5161 0.6237 l
0.5161 0.6235 l
0.5161 0.6231 l
0.5161 0.6229 l
0.5161 0.6227 l
0.5161 0.6223 l
0.5161 0.6221 l
0.5162 0.6220 l
0.5162 0.6215 l
0.5162 0.6214 l
0.5162 0.6212 l
0.5162 0.6207 l
0.5162 0.6206 l
0.5162 0.6204 l
0.5162 0.6199 l
0.5162 0.6198 l
0.5162 0.6197 l
0.5162 0.6191 l
0.5162 0.6190 l
0.5162 0.6189 l
0.5162 0.6183 l
0.5162 0.6182 l
0.5162 0.6181 l
0.5162 0.6175 l
0.5162 0.6174 l
0.5162 0.6174 l
0.5162 0.6167 l
0.5163 0.6167 l
0.5163 0.6166 l
0.5163 0.6159 l
0.5163 0.6159 l
0.5163 0.6158 l
0.5163 0.6152 l
0.5163 0.6151 l
0.5163 0.6151 l
0.5163 0.6144 l
0.5163 0.6143 l
0.5163 0.6143 l
0.5163 0.6136 l
0.5163 0.6135 l
0.5163 0.6135 l
0.5163 0.6128 l
0.5163 0.6128 l
0.5163 0.6121 l
0.5163 0.6120 l
0.5163 0.6120 l
0.5163 0.6120 l
0.5163 0.6112 l
0.5164 0.6104 l
0.5164 0.6104 l
0.5164 0.6104 l
0.5164 0.6089 l
0.5164 0.6088 l
0.5164 0.6088 l
0.5164 0.6081 l
0.5164 0.6073 l
0.5164 0.6073 l
0.5164 0.6072 l
0.5164 0.6065 l
0.5164 0.6058 l
0.5164 0.6057 l
0.5164 0.6056 l
0.5165 0.6043 l
0.5165 0.6041 l
0.5165 0.6040 l
0.5165 0.6027 l
0.5165 0.6026 l
0.5165 0.6024 l
0.5165 0.6018 l
0.5165 0.6012 l
0.5165 0.6010 l
0.5165 0.6009 l
0.5165 0.6002 l
0.5165 0.5996 l
0.5165 0.5994 l
0.5165 0.5993 l
0.5165 0.5981 l
0.5165 0.5979 l
0.5165 0.5977 l
0.5166 0.5965 l
0.5166 0.5963 l
0.5166 0.5961 l
0.5166 0.5955 l
0.5166 0.5950 l
0.5166 0.5947 l
0.5166 0.5945 l
0.5166 0.5940 l
0.5166 0.5934 l
0.5166 0.5932 l
0.5166 0.5929 l
0.5166 0.5919 l
0.5166 0.5916 l
0.5166 0.5914 l
0.5166 0.5903 l
0.5166 0.5900 l
0.5166 0.5898 l
0.5166 0.5893 l
0.5166 0.5888 l
0.5166 0.5885 l
0.5166 0.5882 l
0.5167 0.5877 l
0.5167 0.5872 l
0.5167 0.5869 l
0.5167 0.5866 l
0.5167 0.5857 l
0.5167 0.5853 l
0.5167 0.5850 l
0.5167 0.5841 l
0.5167 0.5838 l
0.5167 0.5834 l
0.5167 0.5830 l
0.5167 0.5826 l
0.5167 0.5822 l
0.5167 0.5819 l
0.5167 0.5814 l
0.5167 0.5810 l
0.5167 0.5806 l
0.5167 0.5803 l
0.5167 0.5795 l
0.5167 0.5791 l
0.5167 0.5787 l
0.5167 0.5779 l
0.5167 0.5775 l
0.5167 0.5771 l
0.5168 0.5767 l
0.5168 0.5764 l
0.5168 0.5760 l
0.5168 0.5756 l
0.5168 0.5752 l
0.5168 0.5748 l
0.5168 0.5744 l
0.5168 0.5740 l
0.5168 0.5732 l
0.5168 0.5728 l
0.5168 0.5724 l
0.5168 0.5717 l
0.5168 0.5713 l
0.5168 0.5708 l
0.5168 0.5705 l
0.5168 0.5701 l
0.5168 0.5697 l
0.5168 0.5692 l
0.5168 0.5689 l
0.5168 0.5686 l
0.5168 0.5681 l
0.5168 0.5677 l
0.5168 0.5670 l
0.5168 0.5666 l
0.5168 0.5661 l
0.5168 0.5655 l
0.5168 0.5650 l
0.5168 0.5645 l
0.5168 0.5642 l
0.5168 0.5639 l
0.5168 0.5634 l
0.5168 0.5629 l
0.5169 0.5626 l
0.5169 0.5624 l
0.5169 0.5619 l
0.5169 0.5614 l
0.5169 0.5608 l
0.5169 0.5603 l
0.5169 0.5598 l
0.5169 0.5592 l
0.5169 0.5587 l
0.5169 0.5582 l
0.5169 0.5579 l
0.5169 0.5577 l
0.5169 0.5572 l
0.5169 0.5566 l
0.5169 0.5564 l
0.5169 0.5561 l
0.5169 0.5556 l
0.5169 0.5551 l
0.5169 0.5546 l
0.5169 0.5540 l
0.5169 0.5535 l
0.5169 0.5530 l
0.5169 0.5525 l
0.5169 0.5519 l
0.5169 0.5517 l
0.5169 0.5514 l
0.5169 0.5509 l
0.5169 0.5503 l
0.5169 0.5501 l
0.5169 0.5499 l
0.5169 0.5493 l
0.5169 0.5488 l
0.5169 0.5483 l
0.5169 0.5478 l
0.5169 0.5472 l
0.5169 0.5468 l
0.5169 0.5462 l
0.5169 0.5456 l
0.5169 0.5454 l
0.5169 0.5452 l
0.5169 0.5446 l
0.5169 0.5441 l
0.5170 0.5438 l
0.5170 0.5436 l
0.5170 0.5431 l
0.5170 0.5425 l
0.5170 0.5421 l
0.5170 0.5415 l
0.5170 0.5409 l
0.5170 0.5405 l
0.5170 0.5399 l
0.5170 0.5393 l
0.5170 0.5391 l
0.5170 0.5390 l
0.5170 0.5384 l
0.5170 0.5378 l
0.5170 0.5376 l
0.5170 0.5374 l
0.5170 0.5368 l
0.5170 0.5362 l
0.5170 0.5358 l
0.5170 0.5352 l
0.5170 0.5346 l
0.5170 0.5343 l
0.5170 0.5337 l
0.5170 0.5331 l
0.5170 0.5329 l
0.5170 0.5327 l
0.5170 0.5321 l
0.5170 0.5315 l
0.5170 0.5313 l
0.5170 0.5312 l
0.5170 0.5305 l
0.5170 0.5299 l
0.5170 0.5296 l
0.5170 0.5290 l
0.5170 0.5283 l
0.5170 0.5280 l
0.5170 0.5274 l
0.5170 0.5268 l
0.5170 0.5266 l
0.5170 0.5265 l
0.5170 0.5258 l
0.5170 0.5252 l
0.5170 0.5251 l
0.5170 0.5249 l
0.5170 0.5243 l
0.5170 0.5236 l
0.5170 0.5234 l
0.5170 0.5227 l
0.5170 0.5221 l
0.5170 0.5218 l
0.5170 0.5211 l
0.5170 0.5205 l
0.5170 0.5204 l
0.5170 0.5202 l
0.5170 0.5196 l
0.5170 0.5189 l
0.5170 0.5188 l
0.5170 0.5187 l
0.5170 0.5180 l
0.5170 0.5173 l
0.5170 0.5171 l
0.5170 0.5164 l
0.5170 0.5158 l
0.5170 0.5155 l
0.5170 0.5149 l
0.5170 0.5142 l
0.5171 0.5141 l
0.5171 0.5140 l
0.5171 0.5133 l
0.5171 0.5126 l
0.5171 0.5125 l
0.5171 0.5124 l
0.5171 0.5117 l
0.5171 0.5111 l
0.5171 0.5109 l
0.5171 0.5102 l
0.5171 0.5095 l
0.5171 0.5093 l
0.5171 0.5086 l
0.5171 0.5079 l
0.5171 0.5078 l
0.5171 0.5077 l
0.5171 0.5070 l
0.5171 0.5064 l
0.5171 0.5063 l
0.5171 0.5062 l
0.5171 0.5055 l
0.5171 0.5048 l
0.5171 0.5046 l
0.5171 0.5039 l
0.5171 0.5032 l
0.5171 0.5030 l
0.5171 0.5023 l
0.5171 0.5017 l
0.5171 0.5016 l
0.5171 0.5015 l
0.5171 0.5008 l
0.5171 0.5001 l
0.5171 0.5000 l
0.5171 0.4999 l
0.5171 0.4992 l
0.5171 0.4985 l
0.5171 0.4984 l
0.5171 0.4977 l
0.5171 0.4969 l
0.5171 0.4968 l
0.5171 0.4961 l
0.5171 0.4954 l
0.5171 0.4953 l
0.5171 0.4952 l
0.5171 0.4945 l
0.5171 0.4938 l
0.5171 0.4937 l
0.5171 0.4937 l
0.5171 0.4930 l
0.5171 0.4922 l
0.5171 0.4921 l
0.5171 0.4914 l
0.5171 0.4907 l
0.5171 0.4905 l
0.5171 0.4898 l
0.5171 0.4891 l
0.5171 0.4890 l
0.5171 0.4890 l
0.5171 0.4883 l
0.5171 0.4875 l
0.5171 0.4875 l
0.5171 0.4874 l
0.5171 0.4867 l
0.5171 0.4860 l
0.5171 0.4858 l
0.5171 0.4851 l
0.5171 0.4844 l
0.5171 0.4843 l
0.5171 0.4836 l
0.5171 0.4828 l
0.5171 0.4828 l
0.5171 0.4827 l
0.5171 0.4820 l
0.5171 0.4813 l
0.5171 0.4812 l
0.5171 0.4812 l
0.5171 0.4804 l
0.5171 0.4797 l
0.5171 0.4796 l
0.5171 0.4789 l
0.5171 0.4781 l
0.5171 0.4780 l
0.5171 0.4773 l
0.5171 0.4766 l
0.5171 0.4765 l
0.5171 0.4765 l
0.5171 0.4757 l
0.5171 0.4750 l
0.5171 0.4749 l
0.5171 0.4749 l
0.5171 0.4742 l
0.5171 0.4734 l
0.5171 0.4733 l
0.5171 0.4726 l
0.5171 0.4719 l
0.5171 0.4718 l
0.5171 0.4710 l
0.5171 0.4703 l
0.5171 0.4702 l
0.5171 0.4702 l
0.5171 0.4695 l
0.5171 0.4687 l
0.5171 0.4687 l
0.5171 0.4686 l
0.5171 0.4679 l
0.5171 0.4672 l
0.5171 0.4671 l
0.5171 0.4663 l
0.5171 0.4656 l
0.5171 0.4655 l
0.5171 0.4648 l
0.5171 0.4640 l
0.5171 0.4640 l
0.5171 0.4639 l
0.5171 0.4632 l
0.5171 0.4625 l
0.5171 0.4624 l
0.5171 0.4624 l
0.5171 0.4616 l
0.5171 0.4609 l
0.5171 0.4608 l
0.5171 0.4601 l
0.5171 0.4593 l
0.5171 0.4592 l
0.5171 0.4585 l
0.5171 0.4578 l
0.5171 0.4577 l
0.5171 0.4577 l
0.5171 0.4569 l
0.5171 0.4562 l
0.5171 0.4562 l
0.5171 0.4561 l
0.5171 0.4554 l
0.5171 0.4546 l
0.5171 0.4546 l
0.5171 0.4538 l
0.5171 0.4531 l
0.5171 0.4530 l
0.5171 0.4522 l
0.5171 0.4515 l
0.5171 0.4515 l
0.5171 0.4514 l
0.5171 0.4507 l
0.5171 0.4499 l
0.5171 0.4499 l
0.5171 0.4499 l
0.5171 0.4491 l
0.5171 0.4484 l
0.5171 0.4483 l
0.5171 0.4475 l
0.5171 0.4468 l
0.5171 0.4467 l
0.5171 0.4460 l
0.5171 0.4452 l
0.5171 0.4452 l
0.5171 0.4452 l
0.5171 0.4444 l
0.5171 0.4437 l
0.5171 0.4436 l
0.5171 0.4436 l
0.5171 0.4428 l
0.5171 0.4421 l
0.5171 0.4420 l
0.5171 0.4413 l
0.5171 0.4405 l
0.5171 0.4405 l
0.5171 0.4397 l
0.5171 0.4390 l
0.5171 0.4389 l
0.5171 0.4389 l
0.5171 0.4381 l
0.5171 0.4374 l
0.5171 0.4374 l
0.5171 0.4373 l
0.5171 0.4366 l
0.5171 0.4358 l
0.5171 0.4358 l
0.5171 0.4350 l
0.5171 0.4343 l
0.5171 0.4342 l
0.5171 0.4334 l
0.5171 0.4327 l
0.5171 0.4327 l
0.5171 0.4326 l
0.5171 0.4319 l
0.5171 0.4311 l
0.5171 0.4311 l
0.5171 0.4311 l
0.5171 0.4303 l
0.5171 0.4296 l
0.5171 0.4295 l
0.5171 0.4287 l
0.5171 0.4280 l
0.5172 0.4279 l
0.5172 0.4272 l
0.5172 0.4264 l
0.5172 0.4264 l
0.5172 0.4264 l
0.5172 0.4256 l
0.5172 0.4249 l
0.5172 0.4248 l
0.5172 0.4248 l
0.5172 0.4240 l
0.5172 0.4233 l
0.5172 0.4232 l
0.5172 0.4225 l
0.5172 0.4217 l
0.5172 0.4217 l
0.5172 0.4209 l
0.5172 0.4202 l
0.5172 0.4201 l
0.5172 0.4201 l
0.5172 0.4194 l
0.5172 0.4186 l
0.5172 0.4186 l
0.5172 0.4186 l
0.5172 0.4178 l
0.5172 0.4170 l
0.5172 0.4170 l
0.5172 0.4162 l
0.5172 0.4155 l
0.5172 0.4154 l
0.5172 0.4147 l
0.5172 0.4139 l
0.5172 0.4139 l
0.5172 0.4139 l
0.5172 0.4131 l
0.5172 0.4123 l
0.5172 0.4123 l
0.5172 0.4123 l
0.5172 0.4115 l
0.5172 0.4108 l
0.5172 0.4107 l
0.5172 0.4100 l
0.5172 0.4092 l
0.5172 0.4092 l
0.5172 0.4084 l
0.5172 0.4076 l
0.5172 0.4076 l
0.5172 0.4076 l
0.5172 0.4068 l
0.5172 0.4061 l
0.5172 0.4060 l
0.5172 0.4060 l
0.5172 0.4053 l
0.5172 0.4045 l
0.5172 0.4045 l
0.5172 0.4037 l
0.5172 0.4029 l
0.5172 0.4029 l
0.5172 0.4021 l
0.5172 0.4014 l
0.5172 0.4013 l
0.5172 0.4013 l
0.5172 0.4006 l
0.5172 0.3998 l
0.5172 0.3998 l
0.5172 0.3998 l
0.5172 0.3990 l
0.5172 0.3982 l
0.5172 0.3982 l
0.5172 0.3974 l
0.5172 0.3967 l
0.5172 0.3966 l
0.5172 0.3959 l
0.5172 0.3951 l
0.5172 0.3951 l
0.5172 0.3951 l
0.5172 0.3943 l
0.5172 0.3935 l
0.5172 0.3935 l
0.5172 0.3935 l
0.5172 0.3927 l
0.5172 0.3920 l
0.5172 0.3919 l
0.5172 0.3912 l
0.5172 0.3904 l
0.5172 0.3904 l
0.5172 0.3896 l
0.5172 0.3888 l
0.5172 0.3888 l
0.5172 0.3888 l
0.5172 0.3880 l
0.5172 0.3873 l
0.5172 0.3872 l
0.5172 0.3872 l
0.5172 0.3865 l
0.5172 0.3857 l
0.5172 0.3857 l
0.5172 0.3849 l
0.5172 0.3841 l
0.5172 0.3841 l
0.5172 0.3833 l
0.5172 0.3826 l
0.5172 0.3826 l
0.5172 0.3825 l
0.5172 0.3818 l
0.5172 0.3810 l
0.5172 0.3810 l
0.5172 0.3810 l
0.5172 0.3802 l
0.5172 0.3794 l
0.5172 0.3794 l
0.5172 0.3786 l
0.5172 0.3779 l
0.5172 0.3778 l
0.5172 0.3771 l
0.5172 0.3763 l
0.5172 0.3763 l
0.5172 0.3763 l
0.5172 0.3755 l
0.5172 0.3747 l
0.5172 0.3747 l
0.5172 0.3747 l
0.5172 0.3739 l
0.5172 0.3732 l
0.5172 0.3731 l
0.5172 0.3724 l
0.5172 0.3716 l
0.5172 0.3716 l
0.5172 0.3708 l
0.5172 0.3700 l
0.5172 0.3700 l
0.5172 0.3700 l
0.5172 0.3692 l
0.5172 0.3685 l
0.5172 0.3685 l
0.5172 0.3685 l
0.5172 0.3677 l
0.5172 0.3669 l
0.5172 0.3669 l
0.5172 0.3661 l
0.5172 0.3653 l
0.5172 0.3653 l
0.5172 0.3645 l
0.5172 0.3638 l
0.5172 0.3638 l
0.5172 0.3638 l
0.5172 0.3630 l
0.5172 0.3622 l
0.5172 0.3622 l
0.5172 0.3622 l
0.5172 0.3614 l
0.5172 0.3606 l
0.5172 0.3606 l
0.5172 0.3598 l
0.5172 0.3591 l
0.5172 0.3591 l
0.5172 0.3583 l
0.5172 0.3575 l
0.5172 0.3575 l
0.5172 0.3575 l
0.5172 0.3567 l
0.5172 0.3559 l
0.5172 0.3559 l
0.5172 0.3559 l
0.5172 0.3551 l
0.5172 0.3544 l
0.5172 0.3544 l
0.5172 0.3536 l
0.5172 0.3528 l
0.5172 0.3528 l
0.5172 0.3520 l
0.5172 0.3512 l
0.5172 0.3512 l
0.5172 0.3512 l
0.5172 0.3504 l
0.5172 0.3497 l
0.5172 0.3497 l
0.5172 0.3497 l
0.5172 0.3489 l
0.5172 0.3481 l
0.5172 0.3481 l
0.5172 0.3473 l
0.5172 0.3465 l
0.5172 0.3465 l
0.5172 0.3457 l
0.5172 0.3450 l
0.5172 0.3450 l
0.5172 0.3450 l
0.5172 0.3442 l
0.5172 0.3434 l
0.5172 0.3434 l
0.5172 0.3434 l
0.5172 0.3426 l
0.5172 0.3418 l
0.5172 0.3418 l
0.5172 0.3411 l
0.5172 0.3403 l
0.5172 0.3403 l
0.5172 0.3395 l
0.5172 0.3387 l
0.5172 0.3387 l
0.5172 0.3387 l
0.5172 0.3379 l
0.5172 0.3371 l
0.5172 0.3371 l
0.5172 0.3371 l
0.5172 0.3364 l
0.5172 0.3356 l
0.5172 0.3356 l
0.5172 0.3348 l
0.5172 0.3340 l
0.5172 0.3340 l
0.5172 0.3332 l
0.5172 0.3324 l
0.5172 0.3324 l
0.5172 0.3324 l
0.5172 0.3317 l
0.5172 0.3309 l
0.5172 0.3309 l
0.5172 0.3309 l
0.5172 0.3301 l
0.5172 0.3293 l
0.5172 0.3293 l
0.5172 0.3285 l
0.5172 0.3277 l
0.5172 0.3277 l
0.5172 0.3270 l
0.5172 0.3262 l
0.5172 0.3262 l
0.5172 0.3262 l
0.5172 0.3254 l
0.5172 0.3246 l
0.5172 0.3246 l
0.5172 0.3246 l
0.5172 0.3238 l
0.5172 0.3230 l
0.5172 0.3230 l
0.5172 0.3223 l
0.5172 0.3215 l
0.5172 0.3215 l
0.5172 0.3207 l
0.5172 0.3199 l
0.5172 0.3199 l
0.5172 0.3199 l
0.5172 0.3191 l
0.5172 0.3183 l
0.5172 0.3183 l
0.5172 0.3183 l
0.5172 0.3176 l
0.5172 0.3168 l
0.5172 0.3168 l
0.5172 0.3160 l
0.5172 0.3152 l
0.5172 0.3152 l
0.5172 0.3144 l
0.5172 0.3136 l
0.5172 0.3136 l
0.5172 0.3136 l
0.5172 0.3129 l
0.5172 0.3121 l
0.5172 0.3121 l
0.5172 0.3121 l
0.5172 0.3113 l
0.5172 0.3105 l
0.5172 0.3105 l
0.5172 0.3097 l
0.5172 0.3089 l
0.5172 0.3089 l
0.5172 0.3082 l
0.5172 0.3074 l
0.5172 0.3074 l
0.5172 0.3074 l
0.5172 0.3066 l
0.5172 0.3058 l
0.5172 0.3058 l
0.5172 0.3058 l
0.5172 0.3050 l
0.5172 0.3049 l
0.5173 0.3049 l
0.5179 0.3049 l
0.5180 0.3049 l
0.5181 0.3049 l
0.5187 0.3049 l
0.5188 0.3049 l
0.5190 0.3049 l
0.5196 0.3049 l
0.5197 0.3049 l
0.5198 0.3049 l
0.5205 0.3050 l
0.5213 0.3050 l
0.5214 0.3050 l
0.5214 0.3050 l
0.5230 0.3050 l
0.5247 0.3050 l
0.5247 0.3050 l
0.5247 0.3050 l
0.5252 0.3050 l
0.5280 0.3051 l
0.5281 0.3051 l
0.5281 0.3051 l
0.5313 0.3051 l
0.5314 0.3051 l
0.5316 0.3051 l
0.5346 0.3052 l
0.5348 0.3052 l
0.5350 0.3052 l
0.5379 0.3053 l
0.5381 0.3053 l
0.5384 0.3053 l
0.5412 0.3053 l
0.5415 0.3054 l
0.5418 0.3054 l
0.5445 0.3054 l
0.5449 0.3054 l
0.5453 0.3054 l
0.5477 0.3055 l
0.5482 0.3055 l
0.5487 0.3055 l
0.5510 0.3055 l
0.5516 0.3056 l
0.5521 0.3056 l
0.5543 0.3056 l
0.5549 0.3056 l
0.5555 0.3056 l
0.5576 0.3056 l
0.5583 0.3057 l
0.5589 0.3057 l
0.5609 0.3057 l
0.5616 0.3057 l
0.5623 0.3057 l
0.5643 0.3057 l
0.5650 0.3057 l
0.5657 0.3057 l
0.5676 0.3057 l
0.5683 0.3057 l
0.5691 0.3057 l
0.5710 0.3057 l
0.5717 0.3057 l
0.5724 0.3057 l
0.5743 0.3057 l
0.5751 0.3057 l
0.5758 0.3057 l
0.5777 0.3057 l
0.5784 0.3057 l
0.5792 0.3057 l
0.5810 0.3057 l
0.5818 0.3057 l
0.5825 0.3057 l
0.5844 0.3057 l
0.5851 0.3057 l
0.5859 0.3057 l
0.5877 0.3057 l
0.5885 0.3057 l
0.5892 0.3057 l
0.5911 0.3057 l
0.5918 0.3057 l
0.5926 0.3057 l
0.5945 0.3057 l
0.5952 0.3057 l
0.5959 0.3057 l
0.5978 0.3057 l
0.5985 0.3057 l
0.5993 0.3057 l
0.6012 0.3057 l
0.6019 0.3057 l
0.6026 0.3057 l
0.6045 0.3057 l
0.6053 0.3057 l
0.6060 0.3057 l
0.6079 0.3057 l
0.6086 0.3057 l
0.6094 0.3057 l
0.6112 0.3057 l
0.6120 0.3057 l
0.6127 0.3057 l
0.6146 0.3057 l
0.6153 0.3057 l
0.6161 0.3057 l
0.6179 0.3057 l
0.6187 0.3057 l
0.6194 0.3057 l
0.6213 0.3057 l
0.6220 0.3057 l
0.6228 0.3057 l
0.6247 0.3057 l
0.6254 0.3057 l
0.6261 0.3057 l
0.6280 0.3057 l
0.6287 0.3057 l
0.6295 0.3057 l
0.6314 0.3057 l
0.6321 0.3057 l
0.6328 0.3057 l
0.6347 0.3057 l
0.6355 0.3057 l
0.6362 0.3057 l
0.6381 0.3057 l
0.6388 0.3057 l
0.6396 0.3057 l
0.6414 0.3057 l
0.6422 0.3057 l
0.6429 0.3057 l
0.6448 0.3057 l
0.6455 0.3057 l
0.6463 0.3057 l
0.6481 0.3057 l
0.6489 0.3057 l
0.6496 0.3057 l
0.6515 0.3057 l
0.6522 0.3057 l
0.6530 0.3057 l
0.6549 0.3057 l
0.6556 0.3057 l
0.6563 0.3057 l
0.6582 0.3057 l
0.6589 0.3057 l
0.6597 0.3057 l
0.6616 0.3057 l
0.6623 0.3057 l
0.6630 0.3057 l
0.6649 0.3057 l
0.6657 0.3057 l
0.6664 0.3057 l
0.6683 0.3057 l
0.6690 0.3057 l
0.6698 0.3057 l
0.6716 0.3057 l
0.6724 0.3057 l
0.6731 0.3057 l
0.6750 0.3057 l
0.6757 0.3057 l
0.6765 0.3057 l
0.6783 0.3057 l
0.6791 0.3057 l
0.6798 0.3057 l
0.6817 0.3057 l
0.6824 0.3057 l
0.6832 0.3057 l
0.6851 0.3057 l
0.6858 0.3057 l
0.6865 0.3057 l
0.6884 0.3057 l
0.6891 0.3057 l
0.6899 0.3057 l
0.6918 0.3057 l
0.6925 0.3057 l
0.6932 0.3057 l
0.6951 0.3057 l
0.6959 0.3057 l
0.6966 0.3057 l
0.6985 0.3057 l
0.6992 0.3057 l
0.7000 0.3057 l
0.7018 0.3057 l
0.7026 0.3057 l
0.7033 0.3057 l
0.7052 0.3057 l
0.7059 0.3057 l
0.7067 0.3057 l
0.7085 0.3057 l
0.7093 0.3057 l
0.7100 0.3057 l
0.7119 0.3057 l
0.7126 0.3057 l
0.7134 0.3057 l
0.7153 0.3057 l
0.7160 0.3057 l
0.7167 0.3057 l
0.7186 0.3057 l
0.7194 0.3057 l
0.7201 0.3057 l
0.7220 0.3057 l
0.7227 0.3057 l
0.7234 0.3057 l
0.7253 0.3057 l
0.7261 0.3057 l
0.7268 0.3057 l
0.7287 0.3057 l
0.7294 0.3057 l
0.7302 0.3057 l
0.7320 0.3057 l
0.7328 0.3057 l
0.7335 0.3057 l
0.7354 0.3057 l
0.7361 0.3057 l
0.7369 0.3057 l
0.7387 0.3057 l
0.7395 0.3057 l
0.7402 0.3057 l
0.7421 0.3057 l
0.7428 0.3057 l
0.7436 0.3057 l
0.7455 0.3057 l
0.7462 0.3057 l
0.7469 0.3057 l
0.7488 0.3057 l
0.7496 0.3057 l
0.7503 0.3057 l
0.7522 0.3057 l
0.7529 0.3057 l
0.7536 0.3057 l
0.7555 0.3057 l
0.7563 0.3057 l
0.7570 0.3057 l
0.7589 0.3057 l
0.7596 0.3057 l
0.7604 0.3057 l
0.7622 0.3057 l
0.7630 0.3057 l
0.7637 0.3057 l
0.7656 0.3057 l
0.7663 0.3057 l
0.7671 0.3057 l
0.7689 0.3057 l
0.7697 0.3057 l
0.7704 0.3057 l
0.7723 0.3057 l
0.7730 0.3057 l
0.7738 0.3057 l
0.7757 0.3057 l
0.7764 0.3057 l
0.7771 0.3057 l
0.7790 0.3057 l
0.7798 0.3057 l
0.7805 0.3057 l
0.7824 0.3057 l
0.7831 0.3057 l
0.7838 0.3057 l
0.7857 0.3057 l
0.7865 0.3057 l
0.7872 0.3057 l
0.7891 0.3057 l
0.7898 0.3057 l
0.7906 0.3057 l
0.7924 0.3057 l
0.7932 0.3057 l
0.7939 0.3057 l
0.7958 0.3057 l
0.7965 0.3057 l
0.7973 0.3057 l
0.7991 0.3057 l
0.7999 0.3057 l
0.8006 0.3057 l
0.8025 0.3057 l
0.8032 0.3057 l
0.8040 0.3057 l
0.8059 0.3057 l
0.8066 0.3057 l
0.8073 0.3057 l
0.8092 0.3057 l
0.8100 0.3057 l
0.8107 0.3057 l
0.8126 0.3057 l
0.8133 0.3057 l
0.8140 0.3057 l
0.8159 0.3057 l
0.8167 0.3057 l
0.8174 0.3057 l
0.8193 0.3057 l
0.8200 0.3057 l
0.8208 0.3057 l
0.8226 0.3057 l
0.8234 0.3057 l
0.8241 0.3057 l
0.8260 0.3057 l
0.8267 0.3057 l
0.8275 0.3057 l
0.8294 0.3057 l
0.8301 0.3057 l
0.8308 0.3057 l
0.8327 0.3057 l
0.8334 0.3057 l
0.8342 0.3057 l
0.8361 0.3057 l
0.8368 0.3057 l
0.8375 0.3057 l
0.8394 0.3057 l
0.8402 0.3057 l
0.8409 0.3057 l
0.8428 0.3057 l
0.8435 0.3057 l
0.8443 0.3057 l
0.8461 0.3057 l
0.8469 0.3057 l
0.8476 0.3057 l
0.8495 0.3057 l
0.8502 0.3057 l
0.8510 0.3057 l
0.8528 0.3057 l
0.8536 0.3057 l
0.8543 0.3057 l
0.8562 0.3057 l
0.8569 0.3057 l
0.8577 0.3057 l
0.8596 0.3057 l
0.8603 0.3057 l
0.8610 0.3057 l
0.8629 0.3057 l
0.8636 0.3057 l
0.8644 0.3057 l
0.8663 0.3057 l
0.8670 0.3057 l
0.8677 0.3057 l
0.8696 0.3057 l
0.8704 0.3057 l
0.8711 0.3057 l
0.8730 0.3057 l
0.8737 0.3057 l
0.8745 0.3057 l
0.8763 0.3057 l
0.8771 0.3057 l
0.8778 0.3057 l
0.8797 0.3057 l
0.8804 0.3057 l
0.8812 0.3057 l
0.8830 0.3057 l
0.8838 0.3057 l
0.8845 0.3057 l
0.8864 0.3057 l
0.8871 0.3057 l
0.8879 0.3057 l
0.8898 0.3057 l
0.8905 0.3057 l
0.8912 0.3057 l
0.8931 0.3057 l
0.8938 0.3057 l
0.8946 0.3057 l
0.8965 0.3057 l
0.8972 0.3057 l
0.8979 0.3057 l
0.8998 0.3057 l
0.9006 0.3057 l
0.9013 0.3057 l
0.9032 0.3057 l
0.9039 0.3057 l
0.9047 0.3057 l
0.9065 0.3057 l
0.9073 0.3057 l
0.9080 0.3057 l
0.9099 0.3057 l
0.9106 0.3057 l
0.9114 0.3057 l
0.9132 0.3057 l
0.9140 0.3057 l
0.9147 0.3057 l
0.9166 0.3057 l
0.9173 0.3057 l
0.9181 0.3057 l
0.9200 0.3057 l
0.9207 0.3057 l
0.9214 0.3057 l
0.9233 0.3057 l
0.9240 0.3057 l
0.9248 0.3057 l
0.9267 0.3057 l
0.9274 0.3057 l
0.9281 0.3057 l
0.9300 0.3057 l
0.9308 0.3057 l
0.9315 0.3057 l
0.9334 0.3057 l
0.9341 0.3057 l
0.9349 0.3057 l
0.9367 0.3057 l
0.9375 0.3057 l
0.9382 0.3057 l
0.9401 0.3057 l
0.9408 0.3057 l
0.9416 0.3057 l
0.9434 0.3057 l
0.9442 0.3057 l
0.9449 0.3057 l
0.9468 0.3057 l
0.9475 0.3057 l
0.9483 0.3057 l
0.9502 0.3057 l
0.9509 0.3057 l
0.9516 0.3057 l
0.9535 0.3057 l
0.9543 0.3057 l
0.9550 0.3057 l
0.9569 0.3057 l
0.9576 0.3057 l
0.9583 0.3057 l
0.9602 0.3057 l
0.9610 0.3057 l
0.9617 0.3057 l
0.9636 0.3057 l
0.9643 0.3057 l
0.9651 0.3057 l
0.9669 0.3057 l
0.9677 0.3057 l
0.9684 0.3057 l
0.9703 0.3057 l
0.9710 0.3057 l
0.9718 0.3057 l
0.9736 0.3057 l
0.9744 0.3057 l
0.9751 0.3057 l
0.9770 0.3057 l
0.9777 0.3057 l
0.9785 0.3057 l
0.9804 0.3057 l
0.9811 0.3057 l
0.9818 0.3057 l
0.9837 0.3057 l
0.9845 0.3057 l
0.9852 0.3057 l
0.9871 0.3057 l
0.9878 0.3057 l
0.9885 0.3057 l
0.9904 0.3057 l
0.9912 0.3057 l
0.9919 0.3057 l
0.9938 0.3057 l
0.9945 0.3057 l
0.9953 0.3057 l
0.9971 0.3057 l
0.9979 0.3057 l
0.9986 0.3057 l
1.0005 0.3057 l
1.0012 0.3057 l
1.0020 0.3057 l
1.0038 0.3057 l
1.0046 0.3057 l
1.0053 0.3057 l
1.0072 0.3057 l
1.0079 0.3057 l
1.0087 0.3057 l
s
[/DeviceRGB] SCS
Color1 SC
[] 0 SD
0.0015 SLW
n
0.1500 0.1500 m
1.1500 0.1500 l
s
n
0.1500 0.8500 m
1.1500 0.8500 l
s
n
0.2002 0.1500 m
0.2002 0.1600 l
s
n
0.2002 0.8500 m
0.2002 0.8400 l
s
n
0.2295 0.1500 m
0.2295 0.1600 l
s
n
0.2295 0.8500 m
0.2295 0.8400 l
s
n
0.2503 0.1500 m
0.2503 0.1600 l
s
n
0.2503 0.8500 m
0.2503 0.8400 l
s
n
0.2665 0.1500 m
0.2665 0.1600 l
s
n
0.2665 0.8500 m
0.2665 0.8400 l
s
n
0.2797 0.1500 m
0.2797 0.1600 l
s
n
0.2797 0.8500 m
0.2797 0.8400 l
s
n
0.2908 0.1500 m
0.2908 0.1600 l
s
n
0.2908 0.8500 m
0.2908 0.8400 l
s
n
0.3005 0.1500 m
0.3005 0.1600 l
s
n
0.3005 0.8500 m
0.3005 0.8400 l
s
n
0.3090 0.1500 m
0.3090 0.1600 l
s
n
0.3090 0.8500 m
0.3090 0.8400 l
s
n
0.3167 0.1500 m
0.3167 0.1600 l
s
n
0.3167 0.8500 m
0.3167 0.8400 l
s
n
0.3668 0.1500 m
0.3668 0.1600 l
s
n
0.3668 0.8500 m
0.3668 0.8400 l
s
n
0.3962 0.1500 m
0.3962 0.1600 l
s
n
0.3962 0.8500 m
0.3962 0.8400 l
s
n
0.4170 0.1500 m
0.4170 0.1600 l
s
n
0.4170 0.8500 m
0.4170 0.8400 l
s
n
0.4332 0.1500 m
0.4332 0.1600 l
s
n
0.4332 0.8500 m
0.4332 0.8400 l
s
n
0.4464 0.1500 m
0.4464 0.1600 l
s
n
0.4464 0.8500 m
0.4464 0.8400 l
s
n
0.4575 0.1500 m
0.4575 0.1600 l
s
n
0.4575 0.8500 m
0.4575 0.8400 l
s
n
0.4672 0.1500 m
0.4672 0.1600 l
s
n
0.4672 0.8500 m
0.4672 0.8400 l
s
n
0.4757 0.1500 m
0.4757 0.1600 l
s
n
0.4757 0.8500 m
0.4757 0.8400 l
s
n
0.4833 0.1500 m
0.4833 0.1600 l
s
n
0.4833 0.8500 m
0.4833 0.8400 l
s
n
0.5335 0.1500 m
0.5335 0.1600 l
s
n
0.5335 0.8500 m
0.5335 0.8400 l
s
n
0.5629 0.1500 m
0.5629 0.1600 l
s
n
0.5629 0.8500 m
0.5629 0.8400 l
s
n
0.5837 0.1500 m
0.5837 0.1600 l
s
n
0.5837 0.8500 m
0.5837 0.8400 l
s
n
0.5998 0.1500 m
0.5998 0.1600 l
s
n
0.5998 0.8500 m
0.5998 0.8400 l
s
n
0.6130 0.1500 m
0.6130 0.1600 l
s
n
0.6130 0.8500 m
0.6130 0.8400 l
s
n
0.6242 0.1500 m
0.6242 0.1600 l
s
n
0.6242 0.8500 m
0.6242 0.8400 l
s
n
0.6338 0.1500 m
0.6338 0.1600 l
s
n
0.6338 0.8500 m
0.6338 0.8400 l
s
n
0.6424 0.1500 m
0.6424 0.1600 l
s
n
0.6424 0.8500 m
0.6424 0.8400 l
s
n
0.6500 0.1500 m
0.6500 0.1600 l
s
n
0.6500 0.8500 m
0.6500 0.8400 l
s
n
0.7002 0.1500 m
0.7002 0.1600 l
s
n
0.7002 0.8500 m
0.7002 0.8400 l
s
n
0.7295 0.1500 m
0.7295 0.1600 l
s
n
0.7295 0.8500 m
0.7295 0.8400 l
s
n
0.7503 0.1500 m
0.7503 0.1600 l
s
n
0.7503 0.8500 m
0.7503 0.8400 l
s
n
0.7665 0.1500 m
0.7665 0.1600 l
s
n
0.7665 0.8500 m
0.7665 0.8400 l
s
n
0.7797 0.1500 m
0.7797 0.1600 l
s
n
0.7797 0.8500 m
0.7797 0.8400 l
s
n
0.7908 0.1500 m
0.7908 0.1600 l
s
n
0.7908 0.8500 m
0.7908 0.8400 l
s
n
0.8005 0.1500 m
0.8005 0.1600 l
s
n
0.8005 0.8500 m
0.8005 0.8400 l
s
n
0.8090 0.1500 m
0.8090 0.1600 l
s
n
0.8090 0.8500 m
0.8090 0.8400 l
s
n
0.8167 0.1500 m
0.8167 0.1600 l
s
n
0.8167 0.8500 m
0.8167 0.8400 l
s
n
0.8668 0.1500 m
0.8668 0.1600 l
s
n
0.8668 0.8500 m
0.8668 0.8400 l
s
n
0.8962 0.1500 m
0.8962 0.1600 l
s
n
0.8962 0.8500 m
0.8962 0.8400 l
s
n
0.9170 0.1500 m
0.9170 0.1600 l
s
n
0.9170 0.8500 m
0.9170 0.8400 l
s
n
0.9332 0.1500 m
0.9332 0.1600 l
s
n
0.9332 0.8500 m
0.9332 0.8400 l
s
n
0.9464 0.1500 m
0.9464 0.1600 l
s
n
0.9464 0.8500 m
0.9464 0.8400 l
s
n
0.9575 0.1500 m
0.9575 0.1600 l
s
n
0.9575 0.8500 m
0.9575 0.8400 l
s
n
0.9672 0.1500 m
0.9672 0.1600 l
s
n
0.9672 0.8500 m
0.9672 0.8400 l
s
n
0.9757 0.1500 m
0.9757 0.1600 l
s
n
0.9757 0.8500 m
0.9757 0.8400 l
s
n
0.9833 0.1500 m
0.9833 0.1600 l
s
n
0.9833 0.8500 m
0.9833 0.8400 l
s
n
1.0335 0.1500 m
1.0335 0.1600 l
s
n
1.0335 0.8500 m
1.0335 0.8400 l
s
n
1.0629 0.1500 m
1.0629 0.1600 l
s
n
1.0629 0.8500 m
1.0629 0.8400 l
s
n
1.0837 0.1500 m
1.0837 0.1600 l
s
n
1.0837 0.8500 m
1.0837 0.8400 l
s
n
1.0998 0.1500 m
1.0998 0.1600 l
s
n
1.0998 0.8500 m
1.0998 0.8400 l
s
n
1.1130 0.1500 m
1.1130 0.1600 l
s
n
1.1130 0.8500 m
1.1130 0.8400 l
s
n
1.1242 0.1500 m
1.1242 0.1600 l
s
n
1.1242 0.8500 m
1.1242 0.8400 l
s
n
1.1338 0.1500 m
1.1338 0.1600 l
s
n
1.1338 0.8500 m
1.1338 0.8400 l
s
n
1.1424 0.1500 m
1.1424 0.1600 l
s
n
1.1424 0.8500 m
1.1424 0.8400 l
s
n
0.1500 0.1500 m
0.1500 0.1700 l
s
n
0.1500 0.8500 m
0.1500 0.8300 l
s
n
0.3167 0.1500 m
0.3167 0.1700 l
s
n
0.3167 0.8500 m
0.3167 0.8300 l
s
n
0.4833 0.1500 m
0.4833 0.1700 l
s
n
0.4833 0.8500 m
0.4833 0.8300 l
s
n
0.6500 0.1500 m
0.6500 0.1700 l
s
n
0.6500 0.8500 m
0.6500 0.8300 l
s
n
0.8167 0.1500 m
0.8167 0.1700 l
s
n
0.8167 0.8500 m
0.8167 0.8300 l
s
n
0.9833 0.1500 m
0.9833 0.1700 l
s
n
0.9833 0.8500 m
0.9833 0.8300 l
s
n
1.1500 0.1500 m
1.1500 0.1700 l
s
n
1.1500 0.8500 m
1.1500 0.8300 l
s
/Times-Roman findfont
dup length dict begin
 {1 index /FID ne {def} {pop pop} ifelse} forall
 /Encoding DefEncoding def
 currentdict
end
/Font41 exch definefont pop
/Font41 FFSF
0.1149 0.1009 m
GS
[0.0364 0.0000 0.0000 0.0364 0 0] CC
(10) show
GR
/Font41 FFSF
0.1514 0.1227 m
GS
[0.0257 0.0000 0.0000 0.0257 0 0] CC
(-22) show
GR
/Font41 FFSF
0.2825 0.1009 m
GS
[0.0364 0.0000 0.0000 0.0364 0 0] CC
(10) show
GR
/Font41 FFSF
0.3190 0.1227 m
GS
[0.0257 0.0000 0.0000 0.0257 0 0] CC
(-21) show
GR
/Font41 FFSF
0.4482 0.1009 m
GS
[0.0364 0.0000 0.0000 0.0364 0 0] CC
(10) show
GR
/Font41 FFSF
0.4847 0.1227 m
GS
[0.0257 0.0000 0.0000 0.0257 0 0] CC
(-20) show
GR
/Font41 FFSF
0.6151 0.1009 m
GS
[0.0364 0.0000 0.0000 0.0364 0 0] CC
(10) show
GR
/Font41 FFSF
0.6516 0.1227 m
GS
[0.0257 0.0000 0.0000 0.0257 0 0] CC
(-19) show
GR
/Font41 FFSF
0.7820 0.1009 m
GS
[0.0364 0.0000 0.0000 0.0364 0 0] CC
(10) show
GR
/Font41 FFSF
0.8184 0.1227 m
GS
[0.0257 0.0000 0.0000 0.0257 0 0] CC
(-18) show
GR
/Font41 FFSF
0.9486 0.1009 m
GS
[0.0364 0.0000 0.0000 0.0364 0 0] CC
(10) show
GR
/Font41 FFSF
0.9851 0.1227 m
GS
[0.0257 0.0000 0.0000 0.0257 0 0] CC
(-17) show
GR
/Font41 FFSF
1.1149 0.1005 m
GS
[0.0364 0.0000 0.0000 0.0364 0 0] CC
(10) show
GR
/Font41 FFSF
1.1514 0.1224 m
GS
[0.0257 0.0000 0.0000 0.0257 0 0] CC
(-16) show
GR
/Font41 FFSF
0.5945 0.0662 m
GS
[0.0364 0.0000 0.0000 0.0364 0 0] CC
(m) show
GR
/Font41 FFSF
0.6227 0.0516 m
GS
[0.0257 0.0000 0.0000 0.0257 0 0] CC
(s) show
GR
/Font41 FFSF
0.6329 0.0662 m
GS
[0.0364 0.0000 0.0000 0.0364 0 0] CC
( [eV]) show
GR
n
0.1500 0.1500 m
0.1500 0.8500 l
s
n
1.1500 0.1500 m
1.1500 0.8500 l
s
n
0.1500 0.1851 m
0.1600 0.1851 l
s
n
1.1500 0.1851 m
1.1400 0.1851 l
s
n
0.1500 0.2057 m
0.1600 0.2057 l
s
n
1.1500 0.2057 m
1.1400 0.2057 l
s
n
0.1500 0.2202 m
0.1600 0.2202 l
s
n
1.1500 0.2202 m
1.1400 0.2202 l
s
n
0.1500 0.2315 m
0.1600 0.2315 l
s
n
1.1500 0.2315 m
1.1400 0.2315 l
s
n
0.1500 0.2408 m
0.1600 0.2408 l
s
n
1.1500 0.2408 m
1.1400 0.2408 l
s
n
0.1500 0.2486 m
0.1600 0.2486 l
s
n
1.1500 0.2486 m
1.1400 0.2486 l
s
n
0.1500 0.2554 m
0.1600 0.2554 l
s
n
1.1500 0.2554 m
1.1400 0.2554 l
s
n
0.1500 0.2613 m
0.1600 0.2613 l
s
n
1.1500 0.2613 m
1.1400 0.2613 l
s
n
0.1500 0.2667 m
0.1600 0.2667 l
s
n
1.1500 0.2667 m
1.1400 0.2667 l
s
n
0.1500 0.3018 m
0.1600 0.3018 l
s
n
1.1500 0.3018 m
1.1400 0.3018 l
s
n
0.1500 0.3223 m
0.1600 0.3223 l
s
n
1.1500 0.3223 m
1.1400 0.3223 l
s
n
0.1500 0.3369 m
0.1600 0.3369 l
s
n
1.1500 0.3369 m
1.1400 0.3369 l
s
n
0.1500 0.3482 m
0.1600 0.3482 l
s
n
1.1500 0.3482 m
1.1400 0.3482 l
s
n
0.1500 0.3575 m
0.1600 0.3575 l
s
n
1.1500 0.3575 m
1.1400 0.3575 l
s
n
0.1500 0.3653 m
0.1600 0.3653 l
s
n
1.1500 0.3653 m
1.1400 0.3653 l
s
n
0.1500 0.3720 m
0.1600 0.3720 l
s
n
1.1500 0.3720 m
1.1400 0.3720 l
s
n
0.1500 0.3780 m
0.1600 0.3780 l
s
n
1.1500 0.3780 m
1.1400 0.3780 l
s
n
0.1500 0.3833 m
0.1600 0.3833 l
s
n
1.1500 0.3833 m
1.1400 0.3833 l
s
n
0.1500 0.4185 m
0.1600 0.4185 l
s
n
1.1500 0.4185 m
1.1400 0.4185 l
s
n
0.1500 0.4390 m
0.1600 0.4390 l
s
n
1.1500 0.4390 m
1.1400 0.4390 l
s
n
0.1500 0.4536 m
0.1600 0.4536 l
s
n
1.1500 0.4536 m
1.1400 0.4536 l
s
n
0.1500 0.4649 m
0.1600 0.4649 l
s
n
1.1500 0.4649 m
1.1400 0.4649 l
s
n
0.1500 0.4741 m
0.1600 0.4741 l
s
n
1.1500 0.4741 m
1.1400 0.4741 l
s
n
0.1500 0.4819 m
0.1600 0.4819 l
s
n
1.1500 0.4819 m
1.1400 0.4819 l
s
n
0.1500 0.4887 m
0.1600 0.4887 l
s
n
1.1500 0.4887 m
1.1400 0.4887 l
s
n
0.1500 0.4947 m
0.1600 0.4947 l
s
n
1.1500 0.4947 m
1.1400 0.4947 l
s
n
0.1500 0.5000 m
0.1600 0.5000 l
s
n
1.1500 0.5000 m
1.1400 0.5000 l
s
n
0.1500 0.5351 m
0.1600 0.5351 l
s
n
1.1500 0.5351 m
1.1400 0.5351 l
s
n
0.1500 0.5557 m
0.1600 0.5557 l
s
n
1.1500 0.5557 m
1.1400 0.5557 l
s
n
0.1500 0.5702 m
0.1600 0.5702 l
s
n
1.1500 0.5702 m
1.1400 0.5702 l
s
n
0.1500 0.5815 m
0.1600 0.5815 l
s
n
1.1500 0.5815 m
1.1400 0.5815 l
s
n
0.1500 0.5908 m
0.1600 0.5908 l
s
n
1.1500 0.5908 m
1.1400 0.5908 l
s
n
0.1500 0.5986 m
0.1600 0.5986 l
s
n
1.1500 0.5986 m
1.1400 0.5986 l
s
n
0.1500 0.6054 m
0.1600 0.6054 l
s
n
1.1500 0.6054 m
1.1400 0.6054 l
s
n
0.1500 0.6113 m
0.1600 0.6113 l
s
n
1.1500 0.6113 m
1.1400 0.6113 l
s
n
0.1500 0.6167 m
0.1600 0.6167 l
s
n
1.1500 0.6167 m
1.1400 0.6167 l
s
n
0.1500 0.6518 m
0.1600 0.6518 l
s
n
1.1500 0.6518 m
1.1400 0.6518 l
s
n
0.1500 0.6723 m
0.1600 0.6723 l
s
n
1.1500 0.6723 m
1.1400 0.6723 l
s
n
0.1500 0.6869 m
0.1600 0.6869 l
s
n
1.1500 0.6869 m
1.1400 0.6869 l
s
n
0.1500 0.6982 m
0.1600 0.6982 l
s
n
1.1500 0.6982 m
1.1400 0.6982 l
s
n
0.1500 0.7075 m
0.1600 0.7075 l
s
n
1.1500 0.7075 m
1.1400 0.7075 l
s
n
0.1500 0.7153 m
0.1600 0.7153 l
s
n
1.1500 0.7153 m
1.1400 0.7153 l
s
n
0.1500 0.7220 m
0.1600 0.7220 l
s
n
1.1500 0.7220 m
1.1400 0.7220 l
s
n
0.1500 0.7280 m
0.1600 0.7280 l
s
n
1.1500 0.7280 m
1.1400 0.7280 l
s
n
0.1500 0.7333 m
0.1600 0.7333 l
s
n
1.1500 0.7333 m
1.1400 0.7333 l
s
n
0.1500 0.7685 m
0.1600 0.7685 l
s
n
1.1500 0.7685 m
1.1400 0.7685 l
s
n
0.1500 0.7890 m
0.1600 0.7890 l
s
n
1.1500 0.7890 m
1.1400 0.7890 l
s
n
0.1500 0.8036 m
0.1600 0.8036 l
s
n
1.1500 0.8036 m
1.1400 0.8036 l
s
n
0.1500 0.8149 m
0.1600 0.8149 l
s
n
1.1500 0.8149 m
1.1400 0.8149 l
s
n
0.1500 0.8241 m
0.1600 0.8241 l
s
n
1.1500 0.8241 m
1.1400 0.8241 l
s
n
0.1500 0.8319 m
0.1600 0.8319 l
s
n
1.1500 0.8319 m
1.1400 0.8319 l
s
n
0.1500 0.8387 m
0.1600 0.8387 l
s
n
1.1500 0.8387 m
1.1400 0.8387 l
s
n
0.1500 0.8447 m
0.1600 0.8447 l
s
n
1.1500 0.8447 m
1.1400 0.8447 l
s
n
0.1500 0.8500 m
0.1600 0.8500 l
s
n
1.1500 0.8500 m
1.1400 0.8500 l
s
n
0.1500 0.1500 m
0.1700 0.1500 l
s
n
1.1500 0.1500 m
1.1300 0.1500 l
s
n
0.1500 0.2667 m
0.1700 0.2667 l
s
n
1.1500 0.2667 m
1.1300 0.2667 l
s
n
0.1500 0.3833 m
0.1700 0.3833 l
s
n
1.1500 0.3833 m
1.1300 0.3833 l
s
n
0.1500 0.5000 m
0.1700 0.5000 l
s
n
1.1500 0.5000 m
1.1300 0.5000 l
s
n
0.1500 0.6167 m
0.1700 0.6167 l
s
n
1.1500 0.6167 m
1.1300 0.6167 l
s
n
0.1500 0.7333 m
0.1700 0.7333 l
s
n
1.1500 0.7333 m
1.1300 0.7333 l
s
n
0.1500 0.8500 m
0.1700 0.8500 l
s
n
1.1500 0.8500 m
1.1300 0.8500 l
s
/Font41 FFSF
0.0914 0.1306 m
GS
[0.0364 0.0000 0.0000 0.0364 0 0] CC
(10) show
GR
/Font41 FFSF
0.1278 0.1525 m
GS
[0.0257 0.0000 0.0000 0.0257 0 0] CC
(0) show
GR
/Font41 FFSF
0.0933 0.2473 m
GS
[0.0364 0.0000 0.0000 0.0364 0 0] CC
(10) show
GR
/Font41 FFSF
0.1298 0.2692 m
GS
[0.0257 0.0000 0.0000 0.0257 0 0] CC
(1) show
GR
/Font41 FFSF
0.0914 0.3640 m
GS
[0.0364 0.0000 0.0000 0.0364 0 0] CC
(10) show
GR
/Font41 FFSF
0.1278 0.3858 m
GS
[0.0257 0.0000 0.0000 0.0257 0 0] CC
(2) show
GR
/Font41 FFSF
0.0925 0.4806 m
GS
[0.0364 0.0000 0.0000 0.0364 0 0] CC
(10) show
GR
/Font41 FFSF
0.1290 0.5025 m
GS
[0.0257 0.0000 0.0000 0.0257 0 0] CC
(3) show
GR
/Font41 FFSF
0.0914 0.5973 m
GS
[0.0364 0.0000 0.0000 0.0364 0 0] CC
(10) show
GR
/Font41 FFSF
0.1278 0.6192 m
GS
[0.0257 0.0000 0.0000 0.0257 0 0] CC
(4) show
GR
/Font41 FFSF
0.0922 0.7138 m
GS
[0.0364 0.0000 0.0000 0.0364 0 0] CC
(10) show
GR
/Font41 FFSF
0.1286 0.7356 m
GS
[0.0257 0.0000 0.0000 0.0257 0 0] CC
(5) show
GR
/Font41 FFSF
0.0914 0.8305 m
GS
[0.0364 0.0000 0.0000 0.0364 0 0] CC
(10) show
GR
/Font41 FFSF
0.1278 0.8523 m
GS
[0.0257 0.0000 0.0000 0.0257 0 0] CC
(6) show
GR
/Symbol findfont
/Font37 exch definefont pop
/Font37 FFSF
0.0668 0.4320 m
GS
[0.0000 0.0364 -0.0364 0.0000 0 0] CC
(w) show
GR
/Font41 FFSF
0.0814 0.4571 m
GS
[0.0000 0.0257 -0.0257 0.0000 0 0] CC
(BD) show
GR
/Font41 FFSF
0.0668 0.4927 m
GS
[0.0000 0.0364 -0.0364 0.0000 0 0] CC
( +3/2) show
GR
n
0.1500 0.1500 m
0.1500 0.8500 l
1.1500 0.8500 l
1.1500 0.1500 l
0.1500 0.1500 l
c
s
n
0.7000 1.0000 m
0.7000 0.8827 l
1.2893 0.8827 l
1.2893 1.0000 l
c
[/DeviceRGB] SCS
Color0 SC
fill
[/DeviceRGB] SCS
Color1 SC
n
0.7000 1.0000 m
0.7000 0.8827 l
1.2893 0.8827 l
1.2893 1.0000 l
0.7000 1.0000 l
c
s
/Font41 FFSF
0.8730 0.9649 m
GS
[0.0336 0.0000 0.0000 0.0336 0 0] CC
(BH-PSR \(SKA\) ) show
GR
/Font37 FFSF
1.0969 0.9649 m
GS
[0.0336 0.0000 0.0000 0.0336 0 0] CC
(d) show
GR
/Font41 FFSF
1.1134 0.9515 m
GS
[0.0238 0.0000 0.0000 0.0238 0 0] CC
(sys) show
GR
/Font41 FFSF
1.1436 0.9649 m
GS
[0.0336 0.0000 0.0000 0.0336 0 0] CC
( = 0.5 ) show
GR
/Font37 FFSF
1.2299 0.9649 m
GS
[0.0336 0.0000 0.0000 0.0336 0 0] CC
(d) show
GR
/Font41 FFSF
1.2463 0.9515 m
GS
[0.0238 0.0000 0.0000 0.0238 0 0] CC
(stat) show
GR
[/DeviceRGB] SCS
Color4 SC
[0.0420 0.0180 ] 0 SD
0.0060 SLW
n
0.7130 0.9682 m
0.8530 0.9682 l
s
/Font41 FFSF
[/DeviceRGB] SCS
Color1 SC
0.8730 0.9113 m
GS
[0.0336 0.0000 0.0000 0.0336 0 0] CC
(BH-PSR \(SKA\) ) show
GR
/Font37 FFSF
1.0969 0.9113 m
GS
[0.0336 0.0000 0.0000 0.0336 0 0] CC
(d) show
GR
/Font41 FFSF
1.1134 0.8978 m
GS
[0.0238 0.0000 0.0000 0.0238 0 0] CC
(sys) show
GR
/Font41 FFSF
1.1436 0.9113 m
GS
[0.0336 0.0000 0.0000 0.0336 0 0] CC
( = 0 ) show
GR
/Font37 FFSF
1.2044 0.9113 m
GS
[0.0336 0.0000 0.0000 0.0336 0 0] CC
(d) show
GR
/Font41 FFSF
1.2208 0.8978 m
GS
[0.0238 0.0000 0.0000 0.0238 0 0] CC
(stat) show
GR
[/DeviceRGB] SCS
Color10 SC
[] 0 SD
0.0060 SLW
n
0.7130 0.9145 m
0.8530 0.9145 l
s
%%Trailer
%%BoundingBox: 25 30 791 614
%%DocumentNeededResources: font Symbol
%%+ font Times-Roman
%%EOF
