1.3189404861327775e-21, 39959.64136982542
1.789232741071133e-21, 39970.67096221326
2.42721626591923e-21, 39981.703598970395
3.292684437473481e-21, 39992.73928093728
4.466751050168162e-21, 40003.7780089543
6.059452499337551e-21, 40014.81978386237
8.220060661394031e-21, 39390.45662799073
1.1151073019284376e-20, 39165.59530104614
1.5127191222007743e-20, 39176.40572218572
2.052106679522715e-20, 39187.21912719948
2.7838226953957874e-20, 38730.40354805248
3.776445384994882e-20, 38355.558605521386
5.12300577527313e-20, 38366.145441707136
6.949706800411632e-20, 37767.50704283385
9.42775134957022e-20, 36808.227310303715
1.2789387820513424e-19, 36161.49184125098
1.7349677007651705e-19, 34962.144952340335
2.3536020370500947e-19, 33199.487469437336
3.192821714411892e-19, 31211.965817287677
4.3312804541914164e-19, 28704.832661645127
5.875677394757377e-19, 25363.819252680478
7.970757195797459e-19, 21575.890363768845
1.0812875861946452e-18, 17388.717169452706
1.4533475113119749e-18, 12233.834893759831
1.9898690236156527e-18, 8604.391545417473
2.6993930696111443e-18, 5005.168574278417
3.6619108382442275e-18, 2393.2239867440035
4.831803388421234e-18, 974.646157780086
6.031571003577597e-18, 386.6208086783741
7.222564220225995e-18, 156.7973856749823
8.412251159789876e-18, 63.07400392563915
9.663022145667029e-18, 23.622827984358437
1.0946962858875311e-17, 8.913677438388472
1.2230782408497167e-17, 3.3241456241773903
1.3477047555893363e-17, 1.2906746262713584
1.4645871093382495e-17, 0.5198457124352802
1.5916063158074708e-17, 0.19890018406868237
1.7296415135476938e-17, 0.06817366945189068
1.879648086134775e-17, 0.022197352591638672
1.9868123207455303e-17, 0.01280639246156802
